{
  "id": "14949",
  "time": "01:30 AM - 01:00 PM",
  "moveSize": "Room or less",
  "userName": "Draft User",
  "phone": "1111111111",
  "from": "ddsadas, Boston, 02135",
  "to": "dsadsadas, Boston, 02135",
  "date": "December 21, 2017"
}
