[
	{
		"created": "1511373871",
		"faq_answer": "The rates are too good for you, good@#4",
		"faq_question": "What are your rates?",
		"id": "2",
		"usefulness": "0"
	},
	{
		"created": "1511806298",
		"faq_answer": "<p><span>The rates are too good for you, good@#</span> <span>4 1  56</span></p>",
		"faq_question": "What are your rates? 1",
		"id": "1",
		"usefulness": "0"
	}
]
