{
	"account":{
		"fields":{
			"field_user_first_name":"Draft",
			"field_user_last_name":"User",
			"field_user_additional_phone":"",
			"field_primary_phone":"(111) 111-1111"
		},
		"mail":"80user_1511964728@draft.ww",
		"name":"80user_1511964728@draft.ww",
		"status":1
	}
}