{
	"status_code": 200,
	"status_message": "OK",
	"data": [
		{
			"item_id": "47",
			"name": "\u0423\u043b\u0435\u0439",
			"image_link": "http://192.168.0.104/sites/default/files/styles/inventory/public/inventory/8TGbXMKpc.jpg?itok=8pqmmHsC",
			"price": "0",
			"cf": 50,
			"status": "0",
			"handle_fee": 0,
			"packing_fee": 0,
			"type": "2",
			"extra_service": 0,
			"extra_service_name": "",
			"weight": "0",
			"total_price": 0,
			"uri": "public://inventory/8TGbXMKpc.jpg",
			"filters": [
				"1",
				"8"
			],
			"rooms": [
				"1",
				"5",
				"7",
				"13",
				"15",
				"17",
				"18",
				"19",
				"20",
				"21",
				"22",
				"23",
				"24",
				"25",
				"26",
				"34",
				"35",
				"37",
				"46",
				"47",
				"49",
				"50",
				"60",
				"72",
				"73",
				"74",
				"75",
				"76",
				"77",
				"82",
				"83",
				"84",
				"85",
				"91",
				"94",
				"95",
				"96",
				"97",
				"98",
				"99",
				"100",
				"101",
				"102",
				"103",
				"104",
				"105",
				"106",
				"107",
				"108",
				"109",
				"110",
				"111"
			]
		}
	]
}