{
  "data": {
    "field_moving_from": {
      "postal_code": "02222",
      "locality": "Boston",
      "administrative_area": "MA"
    },
    "field_moving_to": {
      "postal_code": "02222",
      "locality": "Boston",
      "administrative_area": "MA"
    },
    "field_move_service_type": 1,
    "field_type_of_entrance_to_": "1",
    "field_type_of_entrance_from": "1",
    "field_extra_furnished_rooms": [
    ],
    "field_size_of_move": 1,
    "field_actual_start_time": "8:00 AM",
    "field_start_time_max": "8:00 PM",
    "field_date": {
      "date": "2017-09-12",
      "time": "15:10:00"
    },
    "field_start_time": 1,
    "field_e_mail": "first.last@mail.com",
    "field_first_name": "FirstName",
    "field_last_name": "LastName",
    "field_phone": "(011) 222-3333",
    "status": 1,
    "title": "Move Request",
    "field_approve": 1,
    "field_useweighttype": "1",
    "field_parser_provider_name": "Moveboard",
    "field_travel_time": 0.5,
    "field_duration": 0,
    "field_distance": 1,
    "field_price_per_hour": 90,
    "field_movers_count": "2",
    "field_maximum_move_time": 2.25,
    "field_minimum_move_time": 1.25,
    "field_reservation_price": -1
  },
  "account": {
    "name": "first.last@mail.com",
    "fields": {
      "field_user_first_name": "FirstName",
      "field_user_last_name": "LastName",
      "field_primary_phone": "(011) 222-3333"
    },
    "mail": "first.last@mail.com"
  },
  "admin": true,
  "all_data": {
    "localdiscount": "25",
    "admin": "5865",
    "isDisplayQuoteEye": false,
    "showQuote": true,
    "travelTime": true,
    "request_distance": {
      "duration": 0.5,
      "distance": 1,
      "max_distance": 1,
      "zipFrom": "02222",
      "zipTo": "02222",
      "zipParking": "02222",
      "distances": {
        "AB": {
          "distance": 1,
          "duration": 0
        },
        "BC": {
          "distance": 1,
          "duration": 0
        },
        "CA": {
          "distance": 1,
          "duration": 0
        }
      },
      "duration_origin_destination": 0,
      "distance_origin_destination": 1
    },
    "localFlatMilesFlag": false,
    "surcharge_fuel": 0,
    "surcharge_fuel_perc": 0,
    "surcharge_fuel_avg": 0,
    "invoice": {
      "request_data": {
        "value": {
          "packings": [
            {
              "name": "Custom Packing",
              "rate": 10,
              "quantity": 1,
              "custom": true
            },
            {
              "name": "Middium Box",
              "rate": 9,
              "quantity": 10,
              "showInContract": true
            },
            {
              "name": "Moving Pad",
              "rate": 10,
              "laborRate": 22,
              "LDRate": 22,
              "quantity": 1
            },
            {
              "name": "King Mattress Bag",
              "rate": 10,
              "laborRate": 18,
              "LDRate": 18,
              "quantity": 1
            }
          ]
        }
      }
    }
  }
}
