{
	"data": [
		{
			"id": "70",
			"entity_id": "7270",
			"entity_type": "0",
			"item_id": "304",
			"filter_id": "3",
			"room_id": "15",
			"package_id": "0",
			"pac_rel_id": "0",
			"name": "XL Tote 54 Gal 42.5x21.5x18",
			"price": "0",
			"cf": 10,
			"type": "0",
			"type_inventory": "0",
			"moved": 0,
			"count": 1,
			"total_cf": 10,
			"extra_service": "0",
			"extra_service_name": "",
			"image_link": "http://api.moversboard.net:8082/sites/default/files/styles/inventory/public/inventory/XL-Tote_0_0.jpg?itok=NjKnXwFQ",
			"packing_fee": "0",
			"uri": "public://inventory/XL-Tote_0_0.jpg"
		},
		{
			"id": "71",
			"entity_id": "7270",
			"entity_type": "0",
			"item_id": "300",
			"filter_id": "3",
			"room_id": "15",
			"package_id": "0",
			"pac_rel_id": "0",
			"name": "PICTURE Box Small",
			"price": "0",
			"cf": 1.5,
			"type": "0",
			"type_inventory": "0",
			"moved": 0,
			"count": 2,
			"total_cf": 3,
			"extra_service": "50",
			"extra_service_name": "draw the smile",
			"image_link": "http://api.moversboard.net:8082/sites/default/files/styles/inventory/public/inventory/Picture-box-Small_0.jpg?itok=m366z1Bb",
			"packing_fee": "0",
			"uri": "public://inventory/Picture-box-Small_0.jpg"
		},
		{
			"id": "72",
			"entity_id": "7270",
			"entity_type": "0",
			"item_id": "294",
			"filter_id": "3",
			"room_id": "15",
			"package_id": "0",
			"pac_rel_id": "0",
			"name": "Custom",
			"price": "0",
			"cf": 44,
			"type": "0",
			"type_inventory": "0",
			"moved": 0,
			"count": 3,
			"total_cf": 132,
			"extra_service": "0",
			"extra_service_name": "",
			"image_link": "http://api.moversboard.net:8082/sites/default/files/styles/inventory/public/inventory/Custom.jpg?itok=pw4VhKdE",
			"packing_fee": "0",
			"uri": "public://inventory/Custom.jpg"
		},
		{
			"id": "73",
			"entity_id": "7270",
			"entity_type": "0",
			"item_id": "85",
			"filter_id": "3",
			"room_id": "15",
			"package_id": "0",
			"pac_rel_id": "0",
			"name": "Suitcase Medium",
			"price": "0",
			"cf": 4,
			"type": "0",
			"type_inventory": "0",
			"moved": 0,
			"count": 4,
			"total_cf": 16,
			"extra_service": "0",
			"extra_service_name": "",
			"image_link": "http://api.moversboard.net:8082/sites/default/files/styles/inventory/public/inventory/Suitecase-Med.jpg?itok=nT6O3zZP",
			"packing_fee": "0",
			"uri": "public://inventory/Suitecase-Med.jpg"
		},
		{
			"id": "74",
			"entity_id": "7270",
			"entity_type": "0",
			"item_id": "168",
			"filter_id": "17",
			"room_id": "5",
			"package_id": "0",
			"pac_rel_id": "0",
			"name": "Print, Photo 4'x6'",
			"price": "0",
			"cf": 10,
			"type": "0",
			"type_inventory": "0",
			"moved": 0,
			"count": 4,
			"total_cf": 40,
			"extra_service": "0",
			"extra_service_name": "",
			"image_link": "http://api.moversboard.net:8082/sites/default/files/styles/inventory/public/inventory/Photo-large_0.jpg?itok=XtM8WipN",
			"packing_fee": "0",
			"uri": "public://inventory/Photo-large_0.jpg"
		},
		{
			"id": "75",
			"entity_id": "7270",
			"entity_type": "0",
			"item_id": "165",
			"filter_id": "17",
			"room_id": "5",
			"package_id": "0",
			"pac_rel_id": "0",
			"name": "Painting 4'x6'",
			"price": "0",
			"cf": 10,
			"type": "0",
			"type_inventory": "0",
			"moved": 0,
			"count": 3,
			"total_cf": 30,
			"extra_service": "0",
			"extra_service_name": "",
			"image_link": "http://api.moversboard.net:8082/sites/default/files/styles/inventory/public/inventory/Painting-Large.jpg?itok=jQqEWz6O",
			"packing_fee": "0",
			"uri": "public://inventory/Painting-Large.jpg"
		},
		{
			"id": "76",
			"entity_id": "7270",
			"entity_type": "0",
			"item_id": "159",
			"filter_id": "17",
			"room_id": "5",
			"package_id": "0",
			"pac_rel_id": "0",
			"name": "Garbage Can",
			"price": "0",
			"cf": 5,
			"type": "0",
			"type_inventory": "0",
			"moved": 0,
			"count": 2,
			"total_cf": 10,
			"extra_service": "0",
			"extra_service_name": "",
			"image_link": "http://api.moversboard.net:8082/sites/default/files/styles/inventory/public/inventory/Garbage-Can.jpg?itok=optPmdXl",
			"packing_fee": "0",
			"uri": "public://inventory/Garbage-Can.jpg"
		},
		{
			"id": "77",
			"entity_id": "7270",
			"entity_type": "0",
			"item_id": "151",
			"filter_id": "17",
			"room_id": "5",
			"package_id": "0",
			"pac_rel_id": "0",
			"name": "Lamp, Floor",
			"price": "0",
			"cf": 8,
			"type": "0",
			"type_inventory": "0",
			"moved": 0,
			"count": 1,
			"total_cf": 8,
			"extra_service": "0",
			"extra_service_name": "",
			"image_link": "http://api.moversboard.net:8082/sites/default/files/styles/inventory/public/inventory/Lamp-Floor.jpg?itok=-SFDOjI6",
			"packing_fee": "0",
			"uri": "public://inventory/Lamp-Floor.jpg"
		},
		{
			"id": "78",
			"entity_id": "7270",
			"entity_type": "0",
			"item_id": "92",
			"filter_id": "13",
			"room_id": "2",
			"package_id": "0",
			"pac_rel_id": "0",
			"name": "Side Table",
			"price": "0",
			"cf": 5,
			"type": "0",
			"type_inventory": "0",
			"moved": 0,
			"count": 1,
			"total_cf": 5,
			"extra_service": "0",
			"extra_service_name": "",
			"image_link": "http://api.moversboard.net:8082/sites/default/files/styles/inventory/public/inventory/Side-Table.jpg?itok=sg_ozsP_",
			"packing_fee": "0",
			"uri": "public://inventory/Side-Table.jpg"
		},
		{
			"id": "79",
			"entity_id": "7270",
			"entity_type": "0",
			"item_id": "197",
			"filter_id": "13",
			"room_id": "2",
			"package_id": "0",
			"pac_rel_id": "0",
			"name": "Kitchen Table",
			"price": "0",
			"cf": 20,
			"type": "0",
			"type_inventory": "0",
			"moved": 0,
			"count": 2,
			"total_cf": 40,
			"extra_service": "0",
			"extra_service_name": "",
			"image_link": "http://api.moversboard.net:8082/sites/default/files/styles/inventory/public/inventory/Kitchen-table.jpg?itok=b1pDCmyn",
			"packing_fee": "0",
			"uri": "public://inventory/Kitchen-table.jpg"
		},
		{
			"id": "80",
			"entity_id": "7270",
			"entity_type": "0",
			"item_id": "89",
			"filter_id": "13",
			"room_id": "2",
			"package_id": "0",
			"pac_rel_id": "0",
			"name": "Coffee Table Small",
			"price": "0",
			"cf": 5,
			"type": "0",
			"type_inventory": "0",
			"moved": 0,
			"count": 3,
			"total_cf": 15,
			"extra_service": "0",
			"extra_service_name": "",
			"image_link": "http://api.moversboard.net:8082/sites/default/files/styles/inventory/public/inventory/Copffe-Table-Simple.jpg?itok=cyOYOT6p",
			"packing_fee": "0",
			"uri": "public://inventory/Copffe-Table-Simple.jpg"
		},
		{
			"id": "81",
			"entity_id": "7270",
			"entity_type": "0",
			"item_id": "203",
			"filter_id": "13",
			"room_id": "2",
			"package_id": "0",
			"pac_rel_id": "0",
			"name": "Table, Folding",
			"price": "0",
			"cf": 8,
			"type": "0",
			"type_inventory": "0",
			"moved": 0,
			"count": 2,
			"total_cf": 16,
			"extra_service": "0",
			"extra_service_name": "",
			"image_link": "http://api.moversboard.net:8082/sites/default/files/styles/inventory/public/inventory/Folding-Table.jpg?itok=59Knfo4_",
			"packing_fee": "0",
			"uri": "public://inventory/Folding-Table.jpg"
		},
		{
			"id": "82",
			"entity_id": "7270",
			"entity_type": "0",
			"item_id": "93",
			"filter_id": "13",
			"room_id": "2",
			"package_id": "0",
			"pac_rel_id": "0",
			"name": "Sofa Table",
			"price": "0",
			"cf": 10,
			"type": "0",
			"type_inventory": "0",
			"moved": 0,
			"count": 1,
			"total_cf": 10,
			"extra_service": "0",
			"extra_service_name": "",
			"image_link": "http://api.moversboard.net:8082/sites/default/files/styles/inventory/public/inventory/Table-Sofa.jpg?itok=PC9Oq772",
			"packing_fee": "0",
			"uri": "public://inventory/Table-Sofa.jpg"
		}
	],
	"status_code": 200
}