{
	"boxes": 0,
	"count": 11,
	"created": "1510132045",
	"custom_items": [],
	"filters": [
		{
			"filter_id": "47",
			"items": [
				{
					"cf": 5,
					"entity_id": "4613",
					"entity_type": "0",
					"extra_service": "50",
					"extra_service_name": "поймать птичку",
					"filter_id": "47",
					"id": "16",
					"image_link": "http://api.movecalc.local/sites/default/files/styles/inventory/public/inventory/avatar180_1.jpg?itok=guxxcPJ9",
					"isCannotEdit": false,
					"isSearch": true,
					"item_id": "46",
					"name": "Птичка",
					"pac_rel_id": "0",
					"package_id": "0",
					"packing_fee": "0",
					"price": "0",
					"room_id": "42",
					"selectedTypeInventory": 0,
					"count": 11,
					"total_cf": 55,
					"type": "0",
					"type_inventory": "0",
					"uri": "public://inventory/avatar180_1.jpg"
				}
			],
			"name": "Birds",
			"rooms": [
				"1",
				"13",
				"15",
				"27",
				"28",
				"29",
				"30",
				"31",
				"42"
			],
			"total_count": 11,
			"total_cf": 55,
			"type": "0",
			"weight": "0"
		},
		{
			"filter_id": "49",
			"items": [],
			"name": "черепаха",
			"rooms": [
				"1",
				"9",
				"8",
				"5",
				"2",
				"15",
				"27",
				"28",
				"29",
				"30",
				"31",
				"39",
				"42"
			],
			"type": "0",
			"weight": "0"
		},
		{
			"filter_id": "48",
			"items": [],
			"name": "Cats",
			"rooms": [
				"7",
				"5",
				"2",
				"15",
				"27",
				"28",
				"29",
				"30",
				"31",
				"39",
				"42"
			],
			"type": "0",
			"weight": "0"
		}
	],
	"image_link": "/moveBoard/content/img/icons/boxes.png",
	"items": [],
	"name": "Room1",
	"opened": false,
	"room_id": "42",
	"total_cf": 55,
	"total_count": 11,
	"type": "0",
	"uri": "/moveBoard/content/img/icons/boxes.png",
	"weight": "22"
}