{ "data":{
  "name":"Up",
  "icc_mc_number": 12312,
  "usdot_number": 42312,
  "contact_person":"Jair",
  "address":"St.Street 9",
  "zip_code": 12312,
  "city":"Boston",
  "state": "AL",
  "country": "USA",
  "phones":[1234232,1234232, 3234232],
  "email": "carrier@gmail.com",
  "web_site": "ld.com",
  "company_carrier": 1,
  "active": 1
}}