{
  "data": {
    "trip_details": {
      "trip_number": 103,
      "internal_code": 103,
      "type": "1",
      "flag": "1",
      "description": "Fl Fl",
      "date_start": 1475685400,
      "date_end": 1475695400,
      "mileage_start": 0,
      "mileage_end": 0
    },
    "start_from": {
      "zip": 12345,
      "city": "Boston",
      "state": "X3"
    },
    "ends_in": {
      "zip": 12345,
      "city": "Boston",
      "state": "ZB"
    },
    "truck": "NONE",
    "trailer": "NONE",
    "carier": "1",
    "driver_name": "ugin",
    "driver_phone": "(765)366-2702",
    "notes": "Notes"
  }
}