{
	"status": true,
	"status_code": 200,
	"status_message": "OK",
	"response": [
		{
			"id": "28",
			"user_id": "1",
			"subject": "Order #13252 | IXttet_t DLFyiB_t",
			"description": "to call back",
			"color": "cc9900",
			"starts_at": "1510501620",
			"ends_at": "1510677600",
			"remind_for": "5",
			"remind_at": "1510502273",
			"dismissed_at": "1510501975",
			"created_at": "1510501340",
			"updated_at": "1510501986",
			"snoozed_for": "5",
			"node_id": "13252",
			"customer_name": "IXttet_t DLFyiB_t"
		},
		{
			"id": "32",
			"user_id": "1",
			"subject": "Order #13381 | YXsLSM_t nUcyPw_t",
			"description": "5 40",
			"color": "13c713",
			"starts_at": "1510587600",
			"ends_at": "1510587600",
			"remind_for": "5",
			"remind_at": "1510588623",
			"dismissed_at": "1510588109",
			"created_at": "1510586454",
			"updated_at": "1510588125",
			"snoozed_for": "5",
			"node_id": "13381",
			"customer_name": "YXsLSM_t nUcyPw_t"
		},
		{
			"id": "33",
			"user_id": "1",
			"subject": "Order #13381 | YXsLSM_t nUcyPw_t",
			"description": "07 50",
			"color": "368ec5",
			"starts_at": "1510595400",
			"ends_at": "1510595400",
			"remind_for": "5",
			"remind_at": null,
			"dismissed_at": "1510608466",
			"created_at": "1510594977",
			"updated_at": "1510608479",
			"snoozed_for": null,
			"node_id": "13381",
			"customer_name": "YXsLSM_t nUcyPw_t"
		}
	]
}