{
  "old":{
    "deliveryCrew":{
      "helpers":[
        "5903",
        "6865",
        "5908"
      ],
      "foreman":"5905"
    }
  },
  "new":{
    "deliveryCrew":{
      "helpers":[
        "5903",
        "6865",
        "5908"
      ],
      "foreman":"5905"
    },
    "pickedUpCrew":{
      "helpers":[
        "5901",
        "5902"
      ],
      "foreman":"5906"
    }
  }
}
