{
  "pickedUpCrew":{
    "helpers":[
      "5903",
      "6865",
      "5908"
    ],
    "foreman":"5905"
  },
  "deliveryCrew":{
    "helpers":[
      "5901",
      "5902"
    ],
    "foreman":"5906"
  }
}