{
  "old":{
  "baseCrew":{
    "helpers":[
      "5988"
    ]
  },
  "additionalCrews":[

  ],
  "foreman":"5904"
  },
  "new":{
    "baseCrew":{
      "helpers":[
        "5903"
      ]
    },
    "additionalCrews":[

    ],
    "foreman":"5905"
  }
}
