{
  "type": "service_account",
  "project_id": "api-project-692727056838",
  "private_key_id": "19e604fc23c7264fbf7013691a66ced87ae2b5d8",
  "private_key": "-----BEGIN PRIVATE KEY-----\nMIIEvQIBADANBgkqhkiG9w0BAQEFAASCBKcwggSjAgEAAoIBAQDF5OlOqdm5TC+z\n6DJK1OZ8RTeE/5NFvMTEpe6GEL2hNRNAjfoMckpE5ZylLcnbcNU8SturtCxS/Smo\nyJMA0j9EZPyAXHUWLHofpvkjOJn67egG9DCYQkjKrS+U1ntfoeKosEky/tdAl+fz\nS7xhwK7eh0oadBDyhgc2QVa7GouNNIN2+6fGKwdOkZ67jmmmHLgs9QkhzSkwDbFx\nB94TOiOR0mBC7dEc3AUKGnjWg2DlY8/RwP8szr37kOKtDVcmfcHNBi1HbzJMxke6\nEfHKpkz7U3zWcpXfa/hy/IM3lqqbq4eqTZgNdzGa/JDuoz9imqvCRZpv4/jod0oN\nhoDsKd6vAgMBAAECggEAPONoZ6Q6EdnfqY6tfrnP6vePFBRg92mT71+Qqt5WwlWm\nxUuJ3q+Bq34seuRCQgsPCPyNZ2DJ7ITpfv2rwWpvPfeGe2Y3PmnT7448BLrDIeJ2\nbEFQ/GAUroun4rc1gaC5MScAdrjTeRPkMcchQMB87YoZ4lbI6h4T9P0YlvwdaQXu\nc6Iu36x8UaEhVfQ4YpyZrnHfyKCjcLP7fdu2vYpsTW8Aq0ypLgFDk/KuMPGGpfnV\n2FTSMux81QFKa30hhyKvkbzJP4GxtJjzck0/Hbl1g3ed84aBClTfI5spnB5I/qjP\ng4MhPN+KgKQMWLt99z9U5HcEaN6mJmdj5CHj5m3Y8QKBgQD78YFVMO7upzXggcJT\n9k2wKRKJQemo4AEXgW6rLqvShhJk6HkmE7UtWcd/YBH1dcmOfftfHLDkOteCG6lU\n6KeqFwNmwolbDuapdqpNzb00qzxQh4A3z8BEAOPKn2gJLc8ZinA6nU0BG2YrvN/X\nn0kO9E8la6pr+kP88Oxk5YSEkQKBgQDJFJ5nQM+ZmE1T4vPPrDqPI9a9kZb1bnGE\nGF/AA3yTldK7XsFeY/ODZM66rNQBiscURl0DZxq2J46H1PF00nXyR28mxfagxIIV\nPjj8QRqXjiN1A5/bp4EucBL63KAW68wdOWGJFeOsZgl32nOV8KnjswE7G2f7/aAA\n3J558ZzPPwKBgHJ4s4vSlO0oWilsq6/cfEXrE3n70b+iL7zPWUo8BWO8+QSSP+FW\nGP7HCQbNzrsZToAIq7r2XUUFmz+Jc/GZV/zHQgthnmkaJyGeQhjhvvL8ToZEWrSB\nF1mOkfFRZkKtZqizJvTq3b8ABPcgdRASVm6OAJv/BErVRijaCn55bjGRAoGAP/G/\noeQ5YIXPaXLNx+fkQ2rJOkWXNPtnO/OoV16EekZ12kH6yjKM2Obw2uplDQx93JO3\ntoJOO0j/CXENS/I1sdNHpJPlpyB2oZzE8GsfsrxvyCFb77Un3oWjc4U/n6pioZSC\n0N5WJZfZQPUGNtNuo0tkg9BmU/tGq599Ahh0nm8CgYEA4kk1PkrE16Av0qjFjLDH\nYY5DdiqPtUVsx5aGNrBr6uPIjEb/SxQPpo+o/HUsD9dI+aTyMsITQUDj4w6s/g7M\nmY36ZCQtZPpBy6A0x9WByn+8w8Ir4iTp5nk0MlzqcHgm/VCO4qutT/sm/i9NWB2j\ntLHPB6WfAq/olj/6/DJcZkM=\n-----END PRIVATE KEY-----\n",
  "client_email": "eastcoast-a@api-project-692727056838.iam.gserviceaccount.com",
  "client_id": "107215499288129510181",
  "auth_uri": "https://accounts.google.com/o/oauth2/auth",
  "token_uri": "https://accounts.google.com/o/oauth2/token",
  "auth_provider_x509_cert_url": "https://www.googleapis.com/oauth2/v1/certs",
  "client_x509_cert_url": "https://www.googleapis.com/robot/v1/metadata/x509/eastcoast-a%40api-project-692727056838.iam.gserviceaccount.com"
}