{
	"percentTable": {
		"header": [
			"200",
			"300",
			"400"
		],
		"body": [
			{
				"name": "100",
				"value": [
					"1",
					"2",
					"3"
				]
			},
			{
				"name": "200",
				"value": [
					"2",
					"3",
					"4"
				]
			},
			{
				"name": "300",
				"value": [
					"3",
					"4",
					"5"
				]
			}
		]
	},
	"fixedPriceTable": {
		"header": [
			"4"
		],
		"body": [
			{
				"name": "5",
				"value": [
					"6"
				]
			}
		]
	},
	"rateTable": {
		"header": [
			"7",
			"8"
		],
		"body": [
			{
				"name": "10",
				"value": [
					"10",
					"11"
				]
			},
			{
				"name": "50",
				"value": [
					"100",
					"101"
				]
			}
		]
	}
}