{ "data":{
  "user_info": {
    "name": "yhg ghjgj",
    "zip": "45750",
    "zip_from": "99328",
    "state": "OH",
    "city": "Marietta",
    "phone1": "(555) 555-5555",
    "phone2": null,
    "email": "dfg@dfg.dfg",
    "uid": "1",
    "realRequest": true
  },
  "rentals": {
    "apply_late_fee_in" : 5,
    "late_fee" : 50,
    "location": "",
    "lot_number": [{
      "number": "1",
      "color": "Red",
      "from": "",
      "to": ""}],
    "moved_in_date": 1486645200,
    "moved_out_date": "",
    "move_request_id": 5126,
    "monthly_rate": 85.60,
    "rate_per_cuft": 5,
    "storage": "1",
    "status_flag": "1",
    "tax_rate": 1,
    "total_monthly": 100,
    "total_monthly_change": true,
    "volume_cuft": 0
  },
  "recurring": {
    "start": "1",
    "start_date":"1470009600",
    "how_often": 3,
    "how_many": "0",
    "next_run_on":"1470009600",
    "next_run_on_fee":"1470009600",
    "invoice_description":"Storage service @",
    "auto_send":"1",
    "start_point": "1470009600"
  }
}}