{
  "data": {
    "name": "UpdateProtest",
    "address": "Str. Dunaevskogo",
    "zip": "99999",
    "state": "Russia",
    "city": "NY",
    "phone1": "99999999",
    "fax": "44433322",
    "email": "sdfsdfsd@gmail.com",
    "default": "1",
    "tax": "10",
    "rate_per_cuft": "15",
    "late_fee": "15",
    "apply_late_fee_in": "2"
  }
}