{
	"data": [
		{
			"trip_id": "26",
			"job_id": "2",
			"entity_type": "11",
			"receipt_id": "186",
			"amount": "400.00",
			"type": "1",
			"receipt": "a:22:{s:6:\"amount\";s:3:\"400\";s:9:\"auth_code\";s:0:\"\";s:9:\"card_type\";s:0:\"\";s:16:\"transaction_type\";i:1;s:4:\"jobs\";a:1:{i:0;s:1:\"2\";}s:4:\"date\";s:24:\"2018-03-15T09:50:58.118Z\";s:11:\"description\";s:0:\"\";s:4:\"type\";s:4:\"Cash\";s:14:\"payment_method\";s:4:\"Cash\";s:14:\"transaction_id\";s:14:\"Custom Payment\";s:7:\"pending\";b:1;s:6:\"checkN\";s:0:\"\";s:12:\"total_amount\";i:0;s:12:\"payment_flag\";s:8:\"Trip #26\";s:7:\"trip_id\";s:2:\"26\";s:3:\"nid\";s:1:\"2\";s:23:\"tp_delivery_transaction\";i:1;s:5:\"phone\";s:14:\"(234) 234-2423\";s:5:\"email\";s:13:\"51651@sdfg.so\";s:2:\"id\";i:186;s:9:\"entity_id\";s:1:\"2\";s:11:\"entity_type\";s:2:\"11\";}",
			"created": "1521107462",
			"total": "400.00",
			"value": {
				"amount": "400",
				"auth_code": "",
				"card_type": "",
				"transaction_type": 1,
				"jobs": [
					"2"
				],
				"date": "2018-03-15T09:50:58.118Z",
				"description": "",
				"type": "Cash",
				"payment_method": "Cash",
				"transaction_id": "Custom Payment",
				"pending": true,
				"checkN": "",
				"total_amount": 0,
				"payment_flag": "Trip #26",
				"trip_id": "26",
				"nid": "2",
				"tp_delivery_transaction": 1,
				"phone": "(234) 234-2423",
				"email": "51651@sdfg.so",
				"id": 186,
				"entity_id": "2",
				"entity_type": "11"
			}
		},
		{
			"trip_id": "26",
			"job_id": "2",
			"entity_type": "11",
			"receipt_id": "185",
			"amount": "200.00",
			"type": "1",
			"receipt": "a:19:{s:6:\"amount\";s:3:\"200\";s:9:\"auth_code\";s:0:\"\";s:9:\"card_type\";s:0:\"\";s:16:\"transaction_type\";i:1;s:4:\"jobs\";a:1:{i:0;s:1:\"2\";}s:4:\"date\";s:24:\"2018-03-15T09:50:52.586Z\";s:11:\"description\";s:0:\"\";s:4:\"type\";s:4:\"Cash\";s:14:\"payment_method\";s:4:\"Cash\";s:14:\"transaction_id\";s:14:\"Custom Payment\";s:7:\"pending\";b:0;s:6:\"checkN\";s:0:\"\";s:12:\"total_amount\";i:0;s:12:\"payment_flag\";s:8:\"Trip #26\";s:7:\"trip_id\";s:2:\"26\";s:3:\"nid\";s:1:\"2\";s:23:\"tp_delivery_transaction\";i:1;s:5:\"phone\";s:14:\"(234) 234-2423\";s:5:\"email\";s:13:\"51651@sdfg.so\";}",
			"created": "1521107456",
			"total": "200.00",
			"value": {
				"amount": "200",
				"auth_code": "",
				"card_type": "",
				"transaction_type": 1,
				"jobs": [
					"2"
				],
				"date": "2018-03-15T09:50:52.586Z",
				"description": "",
				"type": "Cash",
				"payment_method": "Cash",
				"transaction_id": "Custom Payment",
				"pending": false,
				"checkN": "",
				"total_amount": 0,
				"payment_flag": "Trip #26",
				"trip_id": "26",
				"nid": "2",
				"tp_delivery_transaction": 1,
				"phone": "(234) 234-2423",
				"email": "51651@sdfg.so"
			}
		}
	]
}