[
	{
		"room_id": "1",
		"name": "Studio",
		"image_link": "/moveBoard/content/img/icons/bed.png",
		"type": "0",
		"created": "1504878836",
		"weight": "0",
		"uri": "/moveBoard/content/img/icons/bed.png",
		"filters": [
			{
				"filter_id": "3",
				"weight": "0",
				"name": "For birds",
				"type": "0",
				"rooms": [
					"1",
					"13"
				],
				"items": [
					{
						"item_id": "4",
						"name": "\u0434\u043e\u043c\u0438\u043a \u0434\u043b\u044f \u043f\u0442\u0438\u0447\u043a\u0438",
						"image_link": "http://api.movecalc.local/sites/default/files/styles/inventory/public/inventory/forbird_5.jpg?itok=gVyGmpz-",
						"price": "0",
						"cf": "5",
						"status": "0",
						"handle_fee": "10",
						"packing_fee": "10",
						"type": "0",
						"extra_service": "100",
						"extra_service_name": "\u043f\u043e\u0439\u043c\u0430\u0442\u044c \u043f\u0442\u0438\u0447\u043a\u0443",
						"weight": "0",
						"room_id": "1",
						"filters": [
							"3"
						],
						"uri": "public://inventory/forbird_5.jpg",
						"totals": {
							"total_count": "1",
							"total_cf": "5"
						}
					},
					{
						"item_id": "57",
						"name": "\u043f\u0442\u0438\u0447\u043a\u0430",
						"image_link": "http://api.movecalc.local/sites/default/files/styles/inventory/public/inventory/avatar180.jpg?itok=XXT21TuG",
						"price": "0",
						"cf": "0.5",
						"status": "0",
						"handle_fee": "0",
						"packing_fee": "0",
						"type": "0",
						"extra_service": "10",
						"extra_service_name": "\u043e\u0431\u043a\u0430\u043a\u0430\u0442\u044c \u043f\u0430\u043b\u0435\u0446",
						"weight": "1",
						"room_id": "1",
						"filters": [
							"3"
						],
						"uri": "public://inventory/avatar180.jpg",
						"totals": {
							"total_count": "3",
							"total_cf": "1.5"
						}
					},
					{
						"item_id": "50",
						"name": "normal",
						"image_link": "http://api.movecalc.local/sites/default/files/styles/inventory/public/inventory/catHolder_7.jpg?itok=COyBeZi4",
						"price": "0",
						"cf": "23",
						"status": "0",
						"handle_fee": "0",
						"packing_fee": "0",
						"type": "0",
						"extra_service": "12",
						"extra_service_name": "12",
						"weight": "2",
						"room_id": "1",
						"filters": [
							"3"
						],
						"uri": "public://inventory/catHolder_7.jpg",
						"totals": {
							"total_count": "3",
							"total_cf": "69"
						}
					},
					{
						"item_id": "10",
						"name": "\u0432\u0430\u043d\u043d\u0430 \u0434\u043b\u044f \u043f\u0442\u0438\u0447\u043a\u0438",
						"image_link": "http://api.movecalc.local/sites/default/files/inventory/bath-for-birds.jpg",
						"price": "0",
						"cf": "5",
						"status": "0",
						"handle_fee": "10",
						"packing_fee": "10",
						"type": "0",
						"extra_service": "0",
						"extra_service_name": "",
						"weight": "3",
						"room_id": "1",
						"filters": [
							"3"
						],
						"uri": "http://api.movecalc.local/sites/default/files/inventory/bath-for-birds.jpg",
						"totals": {
							"total_count": "1",
							"total_cf": "5"
						}
					}
				],
				"totals": {
					"total_count": 8,
					"total_cf": 80
				}
			}
		],
		"total_count": "8",
		"total_cf": "80.5"
	},
	{
		"room_id": "17",
		"name": "Boxes",
		"image_link": "/moveBoard/content/img/icons/boxes.png",
		"type": "0",
		"created": "1504878836",
		"weight": "1",
		"uri": "/moveBoard/content/img/icons/boxes.png",
		"filters": [
			{
				"filter_id": "7",
				"weight": "0",
				"name": "Boxes",
				"type": "0",
				"rooms": [
					"17"
				],
				"items": [
					{
						"item_id": "58",
						"name": "Box",
						"image_link": "http://api.movecalc.local/sites/default/files/styles/inventory/public/inventory/box.jpg?itok=QcSUqGi_",
						"price": "0",
						"cf": "20",
						"status": "0",
						"handle_fee": "0",
						"packing_fee": "0",
						"type": "2",
						"extra_service": "0",
						"extra_service_name": "",
						"weight": "0",
						"room_id": "17",
						"filters": [
							"7"
						],
						"uri": "public://inventory/box.jpg"
					}
				]
			}
		]
	},
	{
		"room_id": "16",
		"name": "Other",
		"image_link": "/moveBoard/content/img/icons/vacuum-cleaner.png",
		"type": "0",
		"created": "1504878836",
		"weight": "2",
		"uri": "/moveBoard/content/img/icons/vacuum-cleaner.png"
	},
	{
		"room_id": "15",
		"name": "All",
		"image_link": "/moveBoard/content/img/icons/boxes.png",
		"type": "0",
		"created": "1504878836",
		"weight": "3",
		"uri": "/moveBoard/content/img/icons/boxes.png"
	},
	{
		"room_id": "13",
		"name": "Patio",
		"image_link": "/moveBoard/content/img/icons/grill.png",
		"type": "0",
		"created": "1504878836",
		"weight": "4",
		"uri": "/moveBoard/content/img/icons/grill.png",
		"filters": [
			{
				"filter_id": "3",
				"weight": "0",
				"name": "For birds",
				"type": "0",
				"rooms": [
					"1",
					"13"
				],
				"items": [
					{
						"item_id": "4",
						"name": "\u0434\u043e\u043c\u0438\u043a \u0434\u043b\u044f \u043f\u0442\u0438\u0447\u043a\u0438",
						"image_link": "http://api.movecalc.local/sites/default/files/styles/inventory/public/inventory/forbird_5.jpg?itok=gVyGmpz-",
						"price": "0",
						"cf": "5",
						"status": "0",
						"handle_fee": "10",
						"packing_fee": "10",
						"type": "0",
						"extra_service": "100",
						"extra_service_name": "\u043f\u043e\u0439\u043c\u0430\u0442\u044c \u043f\u0442\u0438\u0447\u043a\u0443",
						"weight": "0",
						"room_id": "13",
						"filters": [
							"3"
						],
						"uri": "public://inventory/forbird_5.jpg",
						"totals": {
							"total_count": "3",
							"total_cf": "15"
						}
					},
					{
						"item_id": "57",
						"name": "\u043f\u0442\u0438\u0447\u043a\u0430",
						"image_link": "http://api.movecalc.local/sites/default/files/styles/inventory/public/inventory/avatar180.jpg?itok=XXT21TuG",
						"price": "0",
						"cf": "0.5",
						"status": "0",
						"handle_fee": "0",
						"packing_fee": "0",
						"type": "0",
						"extra_service": "10",
						"extra_service_name": "\u043e\u0431\u043a\u0430\u043a\u0430\u0442\u044c \u043f\u0430\u043b\u0435\u0446",
						"weight": "1",
						"room_id": "13",
						"filters": [
							"3"
						],
						"uri": "public://inventory/avatar180.jpg",
						"totals": {
							"total_count": "3",
							"total_cf": "1.5"
						}
					},
					{
						"item_id": "50",
						"name": "normal",
						"image_link": "http://api.movecalc.local/sites/default/files/styles/inventory/public/inventory/catHolder_7.jpg?itok=COyBeZi4",
						"price": "0",
						"cf": "23",
						"status": "0",
						"handle_fee": "0",
						"packing_fee": "0",
						"type": "0",
						"extra_service": "12",
						"extra_service_name": "12",
						"weight": "2",
						"room_id": "13",
						"filters": [
							"3"
						],
						"uri": "public://inventory/catHolder_7.jpg",
						"totals": {
							"total_count": "4",
							"total_cf": "92"
						}
					},
					{
						"item_id": "10",
						"name": "\u0432\u0430\u043d\u043d\u0430 \u0434\u043b\u044f \u043f\u0442\u0438\u0447\u043a\u0438",
						"image_link": "http://api.movecalc.local/sites/default/files/inventory/bath-for-birds.jpg",
						"price": "0",
						"cf": "5",
						"status": "0",
						"handle_fee": "10",
						"packing_fee": "10",
						"type": "0",
						"extra_service": "0",
						"extra_service_name": "",
						"weight": "3",
						"room_id": "13",
						"filters": [
							"3"
						],
						"uri": "http://api.movecalc.local/sites/default/files/inventory/bath-for-birds.jpg"
					}
				],
				"totals": {
					"total_count": 10,
					"total_cf": 108
				}
			},
			{
				"filter_id": "8",
				"weight": "0",
				"name": "filter1",
				"type": "0",
				"rooms": [
					"10", "13"
				],
				"items": []
			}
		],
		"total_count": "10",
		"total_cf": "108.5"
	},
	{
		"room_id": "12",
		"name": "Garage",
		"image_link": "/moveBoard/content/img/icons/garage.png",
		"type": "0",
		"created": "1504878836",
		"weight": "5",
		"uri": "/moveBoard/content/img/icons/garage.png",
		"filters": [
			{
				"filter_id": "6",
				"weight": "0",
				"name": "\u0413\u0430\u0440\u0430\u0436\u043d\u044b\u0439 \u0445\u043b\u0430\u043c\u044a",
				"type": "0",
				"rooms": [
					"12"
				],
				"items": [
					{
						"item_id": "11",
						"name": "\u0445\u043b\u0430\u043c1",
						"image_link": "http://api.movecalc.local/sites/default/files/inventory/mqdefault.jpg",
						"price": "0",
						"cf": "3",
						"status": "0",
						"handle_fee": "3",
						"packing_fee": "3",
						"type": "0",
						"extra_service": "0",
						"extra_service_name": "",
						"weight": "0",
						"room_id": "12",
						"filters": [
							"6"
						],
						"uri": "http://api.movecalc.local/sites/default/files/inventory/mqdefault.jpg"
					},
					{
						"item_id": "12",
						"name": "\u0445\u043b\u0430\u043c2",
						"image_link": "http://api.movecalc.local/sites/default/files/inventory/mqdefault_0.jpg",
						"price": "0",
						"cf": "3",
						"status": "0",
						"handle_fee": "4",
						"packing_fee": "0",
						"type": "0",
						"extra_service": "0",
						"extra_service_name": "",
						"weight": "1",
						"room_id": "12",
						"filters": [
							"6"
						],
						"uri": "http://api.movecalc.local/sites/default/files/inventory/mqdefault_0.jpg"
					},
					{
						"item_id": "13",
						"name": "\u0445\u043b\u0430\u043c3",
						"image_link": "http://api.movecalc.local/sites/default/files/inventory/mqdefault_1.jpg",
						"price": "0",
						"cf": "3",
						"status": "0",
						"handle_fee": "42",
						"packing_fee": "0",
						"type": "0",
						"extra_service": "0",
						"extra_service_name": "",
						"weight": "2",
						"room_id": "12",
						"filters": [
							"6"
						],
						"uri": "http://api.movecalc.local/sites/default/files/inventory/mqdefault_1.jpg"
					},
					{
						"item_id": "29",
						"name": "\u0445\u043b\u0430\u043c19",
						"image_link": "http://api.movecalc.local/sites/default/files/inventory/mqdefault_17.jpg",
						"price": "0",
						"cf": "19",
						"status": "0",
						"handle_fee": "0",
						"packing_fee": "0",
						"type": "0",
						"extra_service": "0",
						"extra_service_name": "",
						"weight": "3",
						"room_id": "12",
						"filters": [
							"6"
						],
						"uri": "http://api.movecalc.local/sites/default/files/inventory/mqdefault_17.jpg"
					},
					{
						"item_id": "30",
						"name": "\u0445\u043b\u0430\u043c20",
						"image_link": "http://api.movecalc.local/sites/default/files/inventory/mqdefault_18.jpg",
						"price": "0",
						"cf": "20",
						"status": "0",
						"handle_fee": "234",
						"packing_fee": "0",
						"type": "0",
						"extra_service": "0",
						"extra_service_name": "",
						"weight": "5",
						"room_id": "12",
						"filters": [
							"6"
						],
						"uri": "http://api.movecalc.local/sites/default/files/inventory/mqdefault_18.jpg"
					},
					{
						"item_id": "27",
						"name": "\u0445\u043b\u0430\u043c17",
						"image_link": "http://api.movecalc.local/sites/default/files/inventory/mqdefault_15.jpg",
						"price": "0",
						"cf": "17",
						"status": "0",
						"handle_fee": "0",
						"packing_fee": "0",
						"type": "0",
						"extra_service": "0",
						"extra_service_name": "",
						"weight": "6",
						"room_id": "12",
						"filters": [
							"6"
						],
						"uri": "http://api.movecalc.local/sites/default/files/inventory/mqdefault_15.jpg"
					},
					{
						"item_id": "28",
						"name": "\u0445\u043b\u0430\u043c18",
						"image_link": "http://api.movecalc.local/sites/default/files/inventory/mqdefault_16.jpg",
						"price": "0",
						"cf": "18",
						"status": "0",
						"handle_fee": "0",
						"packing_fee": "0",
						"type": "0",
						"extra_service": "0",
						"extra_service_name": "",
						"weight": "7",
						"room_id": "12",
						"filters": [
							"6"
						],
						"uri": "http://api.movecalc.local/sites/default/files/inventory/mqdefault_16.jpg"
					},
					{
						"item_id": "14",
						"name": "\u0445\u043b\u0430\u043c4",
						"image_link": "http://api.movecalc.local/sites/default/files/inventory/mqdefault_2.jpg",
						"price": "0",
						"cf": "4",
						"status": "0",
						"handle_fee": "2",
						"packing_fee": "533",
						"type": "0",
						"extra_service": "0",
						"extra_service_name": "",
						"weight": "8",
						"room_id": "12",
						"filters": [
							"6"
						],
						"uri": "http://api.movecalc.local/sites/default/files/inventory/mqdefault_2.jpg"
					},
					{
						"item_id": "15",
						"name": "\u0445\u043b\u0430\u043c5",
						"image_link": "http://api.movecalc.local/sites/default/files/inventory/mqdefault_3.jpg",
						"price": "0",
						"cf": "34",
						"status": "0",
						"handle_fee": "0",
						"packing_fee": "0",
						"type": "0",
						"extra_service": "0",
						"extra_service_name": "",
						"weight": "10",
						"room_id": "12",
						"filters": [
							"6"
						],
						"uri": "http://api.movecalc.local/sites/default/files/inventory/mqdefault_3.jpg"
					},
					{
						"item_id": "20",
						"name": "\u0445\u043b\u0430\u043c10",
						"image_link": "http://api.movecalc.local/sites/default/files/inventory/mqdefault_8.jpg",
						"price": "0",
						"cf": "34",
						"status": "0",
						"handle_fee": "0",
						"packing_fee": "0",
						"type": "0",
						"extra_service": "0",
						"extra_service_name": "",
						"weight": "11",
						"room_id": "12",
						"filters": [
							"6"
						],
						"uri": "http://api.movecalc.local/sites/default/files/inventory/mqdefault_8.jpg"
					},
					{
						"item_id": "16",
						"name": "\u0445\u043b\u0430\u043c6",
						"image_link": "http://api.movecalc.local/sites/default/files/inventory/mqdefault_4.jpg",
						"price": "0",
						"cf": "34",
						"status": "0",
						"handle_fee": "0",
						"packing_fee": "0",
						"type": "0",
						"extra_service": "0",
						"extra_service_name": "",
						"weight": "12",
						"room_id": "12",
						"filters": [
							"6"
						],
						"uri": "http://api.movecalc.local/sites/default/files/inventory/mqdefault_4.jpg"
					},
					{
						"item_id": "18",
						"name": "\u0445\u043b\u0430\u043c8",
						"image_link": "http://api.movecalc.local/sites/default/files/inventory/mqdefault_6.jpg",
						"price": "0",
						"cf": "78",
						"status": "0",
						"handle_fee": "0",
						"packing_fee": "0",
						"type": "0",
						"extra_service": "0",
						"extra_service_name": "",
						"weight": "13",
						"room_id": "12",
						"filters": [
							"6"
						],
						"uri": "http://api.movecalc.local/sites/default/files/inventory/mqdefault_6.jpg"
					},
					{
						"item_id": "19",
						"name": "\u0445\u043b\u0430\u043c9",
						"image_link": "http://api.movecalc.local/sites/default/files/inventory/mqdefault_7.jpg",
						"price": "0",
						"cf": "98",
						"status": "0",
						"handle_fee": "0",
						"packing_fee": "0",
						"type": "0",
						"extra_service": "0",
						"extra_service_name": "",
						"weight": "15",
						"room_id": "12",
						"filters": [
							"6"
						],
						"uri": "http://api.movecalc.local/sites/default/files/inventory/mqdefault_7.jpg"
					},
					{
						"item_id": "21",
						"name": "\u0445\u043b\u0430\u043c11",
						"image_link": "http://api.movecalc.local/sites/default/files/inventory/mqdefault_9.jpg",
						"price": "0",
						"cf": "12",
						"status": "0",
						"handle_fee": "0",
						"packing_fee": "0",
						"type": "0",
						"extra_service": "0",
						"extra_service_name": "",
						"weight": "16",
						"room_id": "12",
						"filters": [
							"6"
						],
						"uri": "http://api.movecalc.local/sites/default/files/inventory/mqdefault_9.jpg"
					},
					{
						"item_id": "17",
						"name": "\u0445\u043b\u0430\u043c7",
						"image_link": "http://api.movecalc.local/sites/default/files/inventory/mqdefault_5.jpg",
						"price": "0",
						"cf": "12",
						"status": "0",
						"handle_fee": "0",
						"packing_fee": "0",
						"type": "0",
						"extra_service": "0",
						"extra_service_name": "",
						"weight": "17",
						"room_id": "12",
						"filters": [
							"6"
						],
						"uri": "http://api.movecalc.local/sites/default/files/inventory/mqdefault_5.jpg"
					},
					{
						"item_id": "22",
						"name": "\u0445\u043b\u0430\u043c12",
						"image_link": "http://api.movecalc.local/sites/default/files/inventory/mqdefault_10.jpg",
						"price": "0",
						"cf": "12",
						"status": "0",
						"handle_fee": "0",
						"packing_fee": "0",
						"type": "0",
						"extra_service": "0",
						"extra_service_name": "",
						"weight": "18",
						"room_id": "12",
						"filters": [
							"6"
						],
						"uri": "http://api.movecalc.local/sites/default/files/inventory/mqdefault_10.jpg"
					},
					{
						"item_id": "23",
						"name": "\u0445\u043b\u0430\u043c13",
						"image_link": "http://api.movecalc.local/sites/default/files/inventory/mqdefault_11.jpg",
						"price": "0",
						"cf": "13",
						"status": "0",
						"handle_fee": "0",
						"packing_fee": "0",
						"type": "0",
						"extra_service": "0",
						"extra_service_name": "",
						"weight": "20",
						"room_id": "12",
						"filters": [
							"6"
						],
						"uri": "http://api.movecalc.local/sites/default/files/inventory/mqdefault_11.jpg"
					},
					{
						"item_id": "24",
						"name": "\u0445\u043b\u0430\u043c14",
						"image_link": "http://api.movecalc.local/sites/default/files/inventory/mqdefault_12.jpg",
						"price": "0",
						"cf": "14",
						"status": "0",
						"handle_fee": "0",
						"packing_fee": "0",
						"type": "0",
						"extra_service": "0",
						"extra_service_name": "",
						"weight": "21",
						"room_id": "12",
						"filters": [
							"6"
						],
						"uri": "http://api.movecalc.local/sites/default/files/inventory/mqdefault_12.jpg"
					},
					{
						"item_id": "25",
						"name": "\u0445\u043b\u0430\u043c15",
						"image_link": "http://api.movecalc.local/sites/default/files/inventory/mqdefault_13.jpg",
						"price": "0",
						"cf": "15",
						"status": "0",
						"handle_fee": "0",
						"packing_fee": "0",
						"type": "0",
						"extra_service": "0",
						"extra_service_name": "",
						"weight": "22",
						"room_id": "12",
						"filters": [
							"6"
						],
						"uri": "http://api.movecalc.local/sites/default/files/inventory/mqdefault_13.jpg"
					},
					{
						"item_id": "26",
						"name": "\u0445\u043b\u0430\u043c16",
						"image_link": "http://api.movecalc.local/sites/default/files/inventory/mqdefault_14.jpg",
						"price": "0",
						"cf": "16",
						"status": "0",
						"handle_fee": "0",
						"packing_fee": "0",
						"type": "0",
						"extra_service": "0",
						"extra_service_name": "",
						"weight": "23",
						"room_id": "12",
						"filters": [
							"6"
						],
						"uri": "http://api.movecalc.local/sites/default/files/inventory/mqdefault_14.jpg"
					}
				]
			}
		]
	},
	{
		"room_id": "11",
		"name": "Basement",
		"image_link": "/moveBoard/content/img/icons/stairs.png",
		"type": "0",
		"created": "1504878836",
		"weight": "6",
		"uri": "/moveBoard/content/img/icons/stairs.png"
	},
	{
		"room_id": "10",
		"name": "Extra Rooms",
		"image_link": "/moveBoard/content/img/icons/bed.png",
		"type": "0",
		"created": "1504878836",
		"weight": "7",
		"uri": "/moveBoard/content/img/icons/bed.png",
		"filters": [
			{
				"filter_id": "8",
				"weight": "0",
				"name": "filter1",
				"type": "0",
				"rooms": [
					"10", "13"
				],
				"items": []
			},
			{
				"filter_id": "9",
				"weight": "1",
				"name": "filter2",
				"type": "0",
				"rooms": [
					"10"
				],
				"items": []
			},
			{
				"filter_id": "10",
				"weight": "2",
				"name": "filter3",
				"type": "0",
				"rooms": [
					"10"
				],
				"items": []
			},
			{
				"filter_id": "11",
				"weight": "3",
				"name": "filter4",
				"type": "0",
				"rooms": [
					"10"
				],
				"items": []
			},
			{
				"filter_id": "12",
				"weight": "4",
				"name": "filter5",
				"type": "0",
				"rooms": [
					"10"
				],
				"items": []
			},
			{
				"filter_id": "13",
				"weight": "5",
				"name": "filter6",
				"type": "0",
				"rooms": [
					"10"
				],
				"items": []
			}
		]
	},
	{
		"room_id": "9",
		"name": "Office",
		"image_link": "/moveBoard/content/img/icons/desk.png",
		"type": "0",
		"created": "1504878836",
		"weight": "8",
		"uri": "/moveBoard/content/img/icons/desk.png",
		"filters": [
			{
				"filter_id": "5",
				"weight": "0",
				"name": "For turtle",
				"type": "0",
				"rooms": [
					"9"
				],
				"items": [
					{
						"item_id": "9",
						"name": "\u0430\u043a\u0432\u0430\u0440\u0438\u0443\u043c \u0434\u043b\u044f \u0447\u0435\u0440\u0435\u043f\u0430\u0445\u0438",
						"image_link": "http://api.movecalc.local/sites/default/files/inventory/turtle.jpg",
						"price": "0",
						"cf": "10",
						"status": "0",
						"handle_fee": "10",
						"packing_fee": "10",
						"type": "0",
						"extra_service": "10",
						"extra_service_name": "",
						"weight": "0",
						"room_id": "9",
						"filters": [
							"5"
						],
						"uri": "http://api.movecalc.local/sites/default/files/inventory/turtle.jpg"
					}
				]
			}
		]
	},
	{
		"room_id": "8",
		"name": "Dining Room",
		"image_link": "/moveBoard/content/img/icons/cutlery.png",
		"type": "0",
		"created": "1504878836",
		"weight": "9",
		"uri": "/moveBoard/content/img/icons/cutlery.png"
	},
	{
		"room_id": "7",
		"name": "Living Room",
		"image_link": "/moveBoard/content/img/icons/livingroom.png",
		"type": "0",
		"created": "1504878836",
		"weight": "10",
		"uri": "/moveBoard/content/img/icons/livingroom.png",
		"filters": [
			{
				"filter_id": "2",
				"weight": "0",
				"name": "for Cat",
				"type": "0",
				"rooms": [
					"7"
				],
				"items": [
					{
						"item_id": "2",
						"name": "\u043a\u043e\u0440\u0437\u0438\u043d\u0430 \u0434\u043b\u044f \u043a\u043e\u0442\u0430",
						"image_link": "http://api.movecalc.local/sites/default/files/inventory/catHolder.jpg",
						"price": "0",
						"cf": "10",
						"status": "0",
						"handle_fee": "10",
						"packing_fee": "10",
						"type": "1",
						"extra_service": "100",
						"extra_service_name": "",
						"weight": "0",
						"room_id": "7",
						"filters": [
							"2"
						],
						"uri": "http://api.movecalc.local/sites/default/files/inventory/catHolder.jpg"
					},
					{
						"item_id": "3",
						"name": "\u043a\u043e\u0448\u043a\u0438\u043d \u0434\u043e\u043c",
						"image_link": "http://api.movecalc.local/sites/default/files/inventory/catsHouse.jpg",
						"price": "0",
						"cf": "10",
						"status": "0",
						"handle_fee": "0",
						"packing_fee": "0",
						"type": "0",
						"extra_service": "0",
						"extra_service_name": "",
						"weight": "0",
						"room_id": "7",
						"filters": [
							"2"
						],
						"uri": "http://api.movecalc.local/sites/default/files/inventory/catsHouse.jpg"
					},
					{
						"item_id": "6",
						"name": "test item2",
						"image_link": "http://api.movecalc.local/sites/default/files/inventory/check_6.png",
						"price": "0",
						"cf": "20",
						"status": "0",
						"handle_fee": "23",
						"packing_fee": "213",
						"type": "0",
						"extra_service": "1223",
						"extra_service_name": "",
						"weight": "0",
						"room_id": "7",
						"filters": [
							"2"
						],
						"uri": "http://api.movecalc.local/sites/default/files/inventory/check_6.png"
					}
				]
			}
		]
	},
	{
		"room_id": "6",
		"name": "Bedroom 4",
		"image_link": "/moveBoard/content/img/icons/bed.png",
		"type": "0",
		"created": "1504878836",
		"weight": "11",
		"uri": "/moveBoard/content/img/icons/bed.png"
	},
	{
		"room_id": "5",
		"name": "Bedroom 3",
		"image_link": "/moveBoard/content/img/icons/bed.png",
		"type": "0",
		"created": "1504878836",
		"weight": "12",
		"uri": "/moveBoard/content/img/icons/bed.png"
	},
	{
		"room_id": "4",
		"name": "Bedroom 2",
		"image_link": "/moveBoard/content/img/icons/sofa.png",
		"type": "0",
		"created": "1504878836",
		"weight": "13",
		"uri": "/moveBoard/content/img/icons/sofa.png"
	},
	{
		"room_id": "2",
		"name": "Kitchen",
		"image_link": "/moveBoard/content/img/icons/cooking.png",
		"type": "0",
		"created": "1504878836",
		"weight": "14",
		"uri": "/moveBoard/content/img/icons/cooking.png"
	},
	{
		"room_id": "18",
		"name": "TestRoom",
		"image_link": "http://api.movecalc.local/sites/default/files/styles/inventory/public/inventory/avatar180_0.jpg?itok=Bh0_RSzP",
		"type": "0",
		"created": "1509097762",
		"weight": "15",
		"uri": "public://inventory/avatar180_0.jpg"
	}
]