{
	"date": {
		"value": "06/25/2018",
		"label": "Date",
		"raw": 1529884800,
		"field": "field_date",
		"old": "06/25/2018"
	},
	"status": {
		"value": " Confirmed",
		"label": "Status",
		"field": "field_approve",
		"raw": "3",
		"old": "3"
	},
	"minimum_time": {
		"value": "01:15",
		"label": "Minimum Move Time",
		"field": "field_minimum_move_time",
		"raw": 1.25,
		"old": "01:15"
	},
	"maximum_time": {
		"value": "02:15",
		"label": "Maximum Move time",
		"field": "field_maximum_move_time",
		"raw": 2.25,
		"old": "02:15"
	},
	"travel_time": {
		"value": "00:30",
		"label": "Travel Time",
		"field": "field_travel_time",
		"old": "00:30",
		"raw": 0.5
	},
	"move_size": {
		"value": "Room or less",
		"label": "Size of Move",
		"field": "field_size_of_move",
		"raw": "1",
		"old": "1"
	},
	"service_type": {
		"value": "Moving",
		"label": "Service Type",
		"field": "field_move_service_type",
		"raw": "1",
		"old": "1"
	},
	"crew": {
		"value": "2",
		"label": "Movers Count",
		"field": "field_movers_count",
		"old": "2"
	},
	"rate": {
		"value": "999",
		"label": "Price per hour",
		"field": "field_price_per_hour",
		"old": "999"
	},
	"field_moving_from": {
		"locality": "Company Storage",
		"administrative_area": "MA",
		"thoroughfare": "23131",
		"postal_code": "02135",
		"premise": ""
	},
	"adrfrom": {
		"value": "23131",
		"label": "Moving From",
		"field": "field_moving_from",
		"subfield": "thoroughfare",
		"old": "23131"
	},
	"zip_from": {
		"value": "02135",
		"label": "Origin zip zode",
		"field": "field_moving_from",
		"subfield": "postal_code",
		"old": "02135"
	},
	"apt_from": {
		"value": null,
		"label": "Apt_from",
		"field": "field_apt_from",
		"old": null
	},
	"type_from": {
		"value": "No Stairs - Ground Floor",
		"label": "Type of Entarence (From)",
		"field": "field_type_of_entrance_from",
		"raw": "1",
		"old": "1"
	},
	"field_moving_to": {
		"locality": "Company Storage",
		"administrative_area": "MA",
		"thoroughfare": "31312",
		"postal_code": "02135",
		"premise": ""
	},
	"zip_to": {
		"value": "02135",
		"label": "Destination zip zode",
		"field": "field_moving_to",
		"subfield": "postal_code",
		"old": "02135"
	},
	"type_to": {
		"value": "No Stairs - Ground Floor",
		"label": "Type of Entarence (To)",
		"field": "field_type_of_entrance_to_",
		"raw": "1",
		"old": "1"
	},
	"field_flat_rate_local_move": {
		"value": false,
		"old": false
	},
	"apt_to": {
		"value": null,
		"label": "Apt_to",
		"field": "field_apt_to",
		"old": null
	},
	"from": "Company Storage, MA, 02135",
	"to": "Company Storage, MA, 02135",
	"field_reservation_received": {
		"value": false,
		"label": "Reservation received",
		"field": "field_reservation_received",
		"old": false
	},
	"rooms": {
		"value": [],
		"label": "Extra Furnished Rooms",
		"field": "field_extra_furnished_rooms",
		"raw": [],
		"old": []
	},
	"commercial_extra_rooms": {
		"value": [],
		"label": "Commercial extra rooms",
		"field": "field_commercial_extra_rooms",
		"raw": [],
		"old": []
	},
	"name": "Draft User",
	"email": "75user_1529913023@draft.www",
	"phone": "1111111111",
	"trucks": {
		"value": {
			"tid": "41",
			"vid": "8",
			"name": "For Test3",
			"description": null,
			"format": null,
			"weight": "0",
			"uuid": "d9b74ef0-bd4c-4e9f-b5c8-8ff3e9d59379",
			"vocabulary_machine_name": "trucks",
			"field_ld_only": {
				"und": [
					{
						"value": "0"
					}
				]
			}
		},
		"label": "Truck",
		"raw": [
			"41"
		],
		"old": [
			"41"
		],
		"field": "field_list_truck"
	},
	"delivery_trucks": {
		"value": [],
		"label": "Flat Rate Delivery trucks",
		"raw": [],
		"old": [],
		"field": "field_flat_rate_delivery_trucks"
	},
	"request_data": {
		"value": {
			"crews": {
				"crew": "",
				"workersCollection": [
					"5987",
					"5988",
					"5907"
				],
				"type": "local",
				"active": 0,
				"baseCrew": {
					"name": "Crew",
					"rate": 0,
					"helpers": [
						"5988",
						"5907"
					]
				},
				"additionalCrews": [],
				"foreman": "5904"
			}
		}
	},
	"request_all_data": {
		"localdiscount": "25",
		"isDisplayQuoteEye": false,
		"showQuote": true,
		"travelTime": true,
		"request_distance": {
			"duration": 0.5,
			"distance": 1,
			"max_distance": 1,
			"zipFrom": "02135",
			"zipTo": "02135",
			"zipParking": "02135",
			"distances": {
				"AB": {
					"distance": 1,
					"duration": 0
				},
				"BC": {
					"distance": 1,
					"duration": 0
				},
				"CA": {
					"distance": 1,
					"duration": 0
				}
			},
			"duration_origin_destination": 0,
			"distance_origin_destination": 1
		},
		"surcharge_fuel": 19.13,
		"surcharge_fuel_avg": 10,
		"surcharge_fuel_perc": 0,
		"additionalBlock": {
			"title": "",
			"text": "",
			"isVisible": false
		},
		"add_money_discount": 0,
		"add_percent_discount": 0,
		"add_rate_discount": 0,
		"statistic": {
			"booked_by": "manager",
			"booked_date": 1529913047
		},
		"valuation": {
			"selected": {
				"deductible_level": "Select Valuation",
				"valuation_charge": 0
			},
			"settings": {
				"updated": 1529913026
			},
			"other": {
				"admonition": false,
				"set_by_manager": false,
				"showWarning": false
			},
			"deductible_data": []
		},
		"grandTotalRequest": {
			"min": 167.88,
			"max": 252.88,
			"longdistance": 19.13,
			"flatrate": 0,
			"invoice": 19.13
		},
		"invoice": {
			"work_time": "00:00",
			"work_time_old": "00:00",
			"work_time_int": 0,
			"nid": "13896",
			"apt_from": {
				"value": null,
				"label": "Apt_from",
				"field": "field_apt_from",
				"old": null
			},
			"apt_to": {
				"value": null,
				"label": "Apt_to",
				"field": "field_apt_to",
				"old": null
			},
			"city_from": {
				"value": "Company Storage",
				"label": "Origin city",
				"field": "field_moving_from",
				"subfield": "locality",
				"old": "Company Storage"
			},
			"city_to": {
				"value": "Company Storage",
				"label": "Destination city",
				"field": "field_moving_to",
				"subfield": "locality",
				"old": "Company Storage"
			},
			"date": {
				"value": "06/25/2018",
				"label": "Date",
				"raw": 1529874000,
				"field": "field_date",
				"old": "06/25/2018"
			},
			"ddate": {
				"value": "",
				"label": "Delivery Date",
				"raw": false,
				"field": "field_delivery_date",
				"old": ""
			},
			"delivery_date_from": {
				"value": "",
				"label": "Delivery Date From",
				"raw": false,
				"field": "field_delivery_date_from"
			},
			"delivery_date_to": {
				"value": "",
				"label": "Delivery Date To",
				"raw": false,
				"field": "field_delivery_date_to"
			},
			"delivery_start_time": {
				"value": null,
				"label": "Delivery start",
				"raw": false,
				"field": "field_delivery_start"
			},
			"distance": {
				"value": "1.00",
				"label": "Distance",
				"field": "field_distance",
				"old": "1.00"
			},
			"dstart_time1": {
				"value": null,
				"label": "Delivery start time1",
				"raw": "Delivery start time1",
				"field": "field_delivery_start_time1"
			},
			"dstart_time2": {
				"value": null,
				"label": "Delvery start time2",
				"raw": "Delvery start time2",
				"field": "field_delvery_start_time2"
			},
			"extraServices": [],
			"field_extra_dropoff": {
				"locality": null,
				"premise": null,
				"administrative_area": null,
				"thoroughfare": null,
				"postal_code": null,
				"organisation_name": null
			},
			"field_extra_pickup": {
				"locality": null,
				"premise": null,
				"administrative_area": null,
				"thoroughfare": null,
				"postal_code": null,
				"organisation_name": null
			},
			"field_moving_from": {
				"locality": "Company Storage",
				"administrative_area": "MA",
				"thoroughfare": "23131",
				"postal_code": "02135",
				"premise": ""
			},
			"field_moving_to": {
				"locality": "Company Storage",
				"administrative_area": "MA",
				"thoroughfare": "31312",
				"postal_code": "02135",
				"premise": ""
			},
			"field_reservation_received": {
				"value": false,
				"label": "Reservation received",
				"field": "field_reservation_received",
				"old": false
			},
			"flat_rate_quote": {
				"value": null,
				"label": "Estimated Price",
				"field": "field_estimated_prise",
				"old": null
			},
			"field_usecalculator": {
				"value": true,
				"label": "useCalculator",
				"field": "field_usecalculator",
				"old": true
			},
			"inventory": {
				"inventory_list": [],
				"move_details": {
					"current_door": "1",
					"new_door": "1",
					"current_permit": "None",
					"new_permit": "None",
					"addcomment": "",
					"admincomments": "",
					"pickup": "",
					"delivery": "",
					"delivery_days": 0,
					"steps_origin": "1",
					"steps_destination": "1",
					"quoteExplanation": ""
				}
			},
			"inventory_weight": {
				"counts": 0,
				"cfs": 0,
				"boxes": 0,
				"custom": 0
			},
			"move_size": {
				"value": "Room or less",
				"label": "Size of Move",
				"field": "field_size_of_move",
				"raw": "1",
				"old": "Room or less"
			},
			"receipts": [],
			"rate": {
				"value": 999,
				"label": "Price per hour",
				"field": "field_price_per_hour",
				"old": 999
			},
			"rooms": {
				"value": [],
				"label": "Extra Furnished Rooms",
				"field": "field_extra_furnished_rooms",
				"raw": [],
				"old": []
			},
			"reservation_rate": {
				"value": 340,
				"label": "Reservation_price",
				"field": "field_reservation_price",
				"old": 340
			},
			"service_type": {
				"value": "Moving",
				"label": "Service Type",
				"field": "field_move_service_type",
				"raw": "1",
				"old": "Moving"
			},
			"start_time": {
				"value": " Any Time",
				"field": "field_start_time",
				"raw": "1"
			},
			"start_time1": {
				"value": "8:00 AM",
				"label": "Actual Start Time",
				"field": "field_actual_start_time",
				"raw": 0,
				"old": "8:00 AM"
			},
			"start_time2": {
				"value": "8:00 PM",
				"label": "Start Time Max",
				"field": "field_start_time_max",
				"raw": 0,
				"old": "8:00 PM"
			},
			"status": {
				"value": " Confirmed",
				"label": "Status",
				"field": "field_approve",
				"raw": "3",
				"old": " Confirmed"
			},
			"storage_rate": {
				"value": 100,
				"label": "Storage Price",
				"field": "field_storage_price",
				"old": 100
			},
			"travel_time": {
				"value": "00:30",
				"label": "Travel Time",
				"field": "field_travel_time",
				"old": "00:30",
				"raw": 0.5
			},
			"request_all_data": {
				"localdiscount": "25",
				"isDisplayQuoteEye": false,
				"showQuote": true,
				"travelTime": true,
				"request_distance": {
					"duration": 0.5,
					"distance": 1,
					"max_distance": 1,
					"zipFrom": "02135",
					"zipTo": "02135",
					"zipParking": "02135",
					"distances": {
						"AB": {
							"distance": 1,
							"duration": 0
						},
						"BC": {
							"distance": 1,
							"duration": 0
						},
						"CA": {
							"distance": 1,
							"duration": 0
						}
					},
					"duration_origin_destination": 0,
					"distance_origin_destination": 1
				},
				"surcharge_fuel": 19.13,
				"surcharge_fuel_avg": 10,
				"surcharge_fuel_perc": 0,
				"additionalBlock": {
					"title": "",
					"text": "",
					"isVisible": false
				},
				"add_money_discount": 0,
				"add_percent_discount": 0,
				"add_rate_discount": 0,
				"statistic": [],
				"valuation": {
					"selected": {
						"deductible_level": "Select Valuation",
						"valuation_charge": 0
					},
					"settings": {
						"updated": 1529913026
					},
					"other": {
						"admonition": false,
						"set_by_manager": false,
						"showWarning": false
					},
					"deductible_data": []
				},
				"grandTotalRequest": {
					"min": 167.88,
					"max": 252.88,
					"longdistance": 0,
					"flatrate": 0,
					"invoice": 0
				},
				"invoice": []
			},
			"field_long_distance_rate": {
				"value": "0.00",
				"label": "long_distance_rate",
				"field": "field_long_distance_rate",
				"old": "0.00"
			},
			"type_to": {
				"value": "No Stairs - Ground Floor",
				"label": "Type of Entarence (To)",
				"field": "field_type_of_entrance_to_",
				"raw": "1",
				"old": "No Stairs - Ground Floor"
			},
			"type_from": {
				"value": "No Stairs - Ground Floor",
				"label": "Type of Entarence (From)",
				"field": "field_type_of_entrance_from",
				"raw": "1",
				"old": "No Stairs - Ground Floor"
			},
			"field_cubic_feet": {
				"value": true,
				"label": "cubic_feet",
				"field": "field_cubic_feet",
				"old": true
			},
			"request_data": {
				"value": []
			},
			"crew": {
				"value": "3",
				"label": "Movers Count",
				"field": "field_movers_count",
				"old": "3"
			},
			"maximum_time": {
				"value": "02:15",
				"label": "Maximum Move time",
				"field": "field_maximum_move_time",
				"raw": 2.25,
				"old": "02:15"
			},
			"minimum_time": {
				"value": "01:15",
				"label": "Minimum Move Time",
				"field": "field_minimum_move_time",
				"raw": 1.25,
				"old": "01:15"
			},
			"duration": {
				"value": "0.00",
				"label": "Travel Duration",
				"field": "field_duration",
				"old": "0.00"
			},
			"field_double_travel_time": {
				"value": "00:00",
				"label": "Double Travel Time",
				"field": "field_double_travel_time",
				"old": "00:00",
				"raw": null
			},
			"field_useweighttype": {
				"value": 1,
				"label": "Weight Type",
				"field": "field_useweighttype",
				"old": 1
			},
			"custom_weight": {
				"value": null,
				"label": "Custom Weight",
				"field": "field_customweight",
				"old": null
			},
			"commercial_extra_rooms": {
				"value": [],
				"label": "Commercial extra rooms",
				"field": "field_commercial_extra_rooms",
				"raw": [],
				"old": []
			},
			"field_custom_commercial_item": {
				"cubic_feet": null,
				"is_checked": false,
				"name": null,
				"id": -1
			},
			"closing_weight": {
				"old": 175,
				"value": 175
			},
			"rateDiscount": 0
		},
		"isCustomConfirmationText": false,
		"grand_total": 19.13
	},
	"start_time1": {
		"value": "8:00 AM",
		"label": "Actual Start Time",
		"field": "field_actual_start_time",
		"raw": 16,
		"old": "8:00 AM"
	},
	"start_time2": {
		"value": "8:00 PM",
		"label": "Start Time Max",
		"field": "field_start_time_max",
		"raw": 0,
		"old": "8:00 PM"
	},
	"distance": {
		"value": "1.00",
		"label": "Distance",
		"field": "field_distance",
		"old": "1.00"
	},
	"field_useweighttype": {
		"value": "1",
		"label": "Weight Type",
		"field": "field_useweighttype",
		"old": "1"
	},
	"custom_weight": {
		"value": null,
		"label": "Custom Weight",
		"field": "field_customweight",
		"old": null
	},
	"field_double_travel_time": {
		"value": "00:00",
		"label": "Double Travel Time",
		"field": "field_double_travel_time",
		"old": "00:00",
		"raw": null
	},
	"field_foreman": {
		"value": "5904",
		"label": "Foreman",
		"field": "field_foreman",
		"old": {
			"uid": "5904",
			"name": "FlatRateForeman",
			"pass": "$S$D/ATKs2vdLoHyefEtw4Jdbssv9HwOgO7fZTn4FHSfr.iPVJQKeMw",
			"mail": "FlatRateForeman81995@themoveboard.com",
			"theme": "",
			"signature": "",
			"signature_format": null,
			"created": "1504804581",
			"access": "1527539259",
			"login": "1527508317",
			"status": "1",
			"timezone": null,
			"language": "",
			"picture": null,
			"init": "",
			"data": {
				"mimemail_textonly": 0,
				"htmlmail_plaintext": 0
			},
			"uuid": "9a347fd3-949a-494e-8775-4748b41aaf6a",
			"roles": {
				"2": "authenticated user",
				"4301886": "foreman"
			},
			"field_user_first_name": {
				"und": [
					{
						"value": "FlatRate",
						"format": null,
						"safe_value": "FlatRate"
					}
				]
			},
			"field_user_last_name": {
				"und": [
					{
						"value": "Foreman",
						"format": null,
						"safe_value": "Foreman"
					}
				]
			},
			"field_primary_phone": {
				"und": [
					{
						"value": "(123) 456-7896",
						"format": null,
						"safe_value": "(123) 456-7896"
					}
				]
			},
			"field_user_additional_phone": [],
			"field_isnew": {
				"und": [
					{
						"value": "0"
					}
				]
			},
			"field_source": [],
			"field_previous_login": {
				"und": [
					{
						"value": "1527255261",
						"timezone": "UTC",
						"timezone_db": "UTC",
						"date_type": "datestamp"
					}
				]
			},
			"field_google_calendar_email": [],
			"field_is_home_estimate_login": {
				"und": [
					{
						"value": "0"
					}
				]
			},
			"field_arrivy_user_id": []
		}
	},
	"field_helper": {
		"value": [
			"5988",
			"5907"
		],
		"label": "Helper",
		"field": "field_helper",
		"old": [
			{
				"uid": "5987",
				"name": "helpertest123666@themoveboard.com",
				"pass": "$S$DgYI.rqjWOvcOaZau8GvzHDYsl6Lu72CYsdYka0/lhdc6JOGYeie",
				"mail": "helpertest123666@themoveboard.com",
				"theme": "",
				"signature": "",
				"signature_format": null,
				"created": "1517925728",
				"access": "0",
				"login": "0",
				"status": "1",
				"timezone": null,
				"language": "",
				"picture": null,
				"init": "",
				"data": {
					"mimemail_textonly": 0,
					"htmlmail_plaintext": 0
				},
				"uuid": "235a15da-d341-4452-a620-7fe50ba3e80c",
				"roles": {
					"2": "authenticated user",
					"238415434": "helper"
				},
				"field_user_first_name": {
					"und": [
						{
							"value": "helper",
							"format": null,
							"safe_value": "helper"
						}
					]
				},
				"field_user_last_name": {
					"und": [
						{
							"value": "test1",
							"format": null,
							"safe_value": "test1"
						}
					]
				},
				"field_primary_phone": {
					"und": [
						{
							"value": "(555) 555-5555",
							"format": null,
							"safe_value": "(555) 555-5555"
						}
					]
				},
				"field_user_additional_phone": [],
				"field_isnew": {
					"und": [
						{
							"value": "0"
						}
					]
				},
				"field_source": [],
				"field_previous_login": [],
				"field_google_calendar_email": [],
				"field_is_home_estimate_login": {
					"und": [
						{
							"value": "0"
						}
					]
				},
				"field_arrivy_user_id": []
			},
			{
				"uid": "5988",
				"name": "helpertest258469@themoveboard.com",
				"pass": "$S$DsgsGTQrCBASLe2QIwm4ohPF43r1u5Kt2tt1ReOU991WZcZUwfX1",
				"mail": "helpertest258469@themoveboard.com",
				"theme": "",
				"signature": "",
				"signature_format": null,
				"created": "1517926514",
				"access": "0",
				"login": "0",
				"status": "1",
				"timezone": null,
				"language": "",
				"picture": null,
				"init": "",
				"data": {
					"mimemail_textonly": 0,
					"htmlmail_plaintext": 0
				},
				"uuid": "b813a99b-ce19-4b06-9c9b-ce0785381caf",
				"roles": {
					"2": "authenticated user",
					"238415434": "helper"
				},
				"field_user_first_name": {
					"und": [
						{
							"value": "helper",
							"format": null,
							"safe_value": "helper"
						}
					]
				},
				"field_user_last_name": {
					"und": [
						{
							"value": "test2",
							"format": null,
							"safe_value": "test2"
						}
					]
				},
				"field_primary_phone": {
					"und": [
						{
							"value": "(555) 555-5555",
							"format": null,
							"safe_value": "(555) 555-5555"
						}
					]
				},
				"field_user_additional_phone": [],
				"field_isnew": {
					"und": [
						{
							"value": "0"
						}
					]
				},
				"field_source": [],
				"field_previous_login": [],
				"field_google_calendar_email": [],
				"field_is_home_estimate_login": {
					"und": [
						{
							"value": "0"
						}
					]
				},
				"field_arrivy_user_id": []
			}
		]
	},
	"field_company_flags": {
		"value": {
			"1": "teamAssigned"
		},
		"label": "Company Flags",
		"field": "field_company_flags"
	},
	"field_foreman_assign_time": {
		"value": "1529946475",
		"label": "Foreman Assign Time",
		"field": "field_foreman_assign_time",
		"old": "1529946475"
	},
	"field_custom_commercial_item": {
		"cubic_feet": null,
		"is_checked": false,
		"name": null,
		"id": -1
	},
	"inventory": [],
	"ddate": {
		"value": "",
		"label": "Delivery Date",
		"raw": false,
		"field": "field_delivery_date"
	},
	"delivery_date_to": {
		"value": "",
		"label": "Delivery Date To",
		"raw": false,
		"field": "field_delivery_date_to"
	},
	"delivery_start_time": {
		"value": null,
		"label": "Delivery start",
		"raw": false,
		"field": "field_delivery_start"
	},
	"delivery_date_from": {
		"value": "",
		"label": "Delivery Date From",
		"raw": false,
		"field": "field_delivery_date_from"
	},
	"nid": "13896",
	"flatRate": false,
	"quote": {
		"min": 1748.25,
		"max": 2747.25
	}
}