{
	"count_new": 1,
	"_meta": {
		"currentPage": 1,
		"perPage": 20,
		"pageCount": 1,
		"totalCount": 1
	},
	"items": [
		{
			"id": "2952",
			"notification_type": "30",
			"a_uid": "0",
			"entity_id": "0",
			"entity_type": "2",
			"data": {
				"entity_id": 0,
				"source": "System",
				"text": "Connection could not be established with host server17.websitehostserver.net [Operation timed out #110]"
			},
			"created": "1516967148",
			"title": "Site settings",
			"status": 0,
			"uid": "5936"
		}
	]
}