[
  {
    "field_move_images": {
      "add": [
        {
          "title": "Test image",
          "uri": "data:image/jpeg;base64,/9j/4AAQSkZJRgABAQAAAQABAAD/4QA2RXhpZgAASUkqAAgAAAABADIBAgAUAAAAGgAAAAAAAAAyMDEzOjAyOjIxIDE3OjUyOjE1AP"
        }
      ]
    }
  },
  {
    "field_move_images": {
      "add": [
        {
          "title": "Test image",
          "uri": "data:image/jpeg;base64,/9j/4AAQSkZJRgABAQAAAQABAAD/4QA2RXhpZgAASUkqAAgAAAABADIBAgAUAAAAGgAAAAAAAAAyMDEzOjAyOjIxIDE3OjUyOjE1AP"
        },
        {
          "title": "Test image",
          "uri": "data:image/jpeg;base64,/9j/4AAQSkZJRgABAQAAAQABAAD/4QA2RXhpZgAASUkqAAgAAAABADIBAgAUAAAAGgAAAAAAAAAyMDEzOjAyOjIxIDE3OjUyOjE1AP"
        }
      ]
    }
  }
]
