{
  "account": {
    "mail": "author999@test.com",
    "name": "author999",
    "pass": "1234",
    "status": "1",
    "roles": [
      "authenticated user"
    ],
    "fields": {
      "field_user_first_name": "Author",
      "field_user_last_name": "Author"
    }
  }
}

