{
	"count_positive_stars": [
		{"selected": false, "mark": 1},
		{"selected": false, "mark": 2},
		{"selected": false, "mark": 3},
		{"selected": false, "mark": 4},
		{"selected": false, "mark": 5}
	],
	"count_negative_stars": [
		{"selected": false, "mark": 1},
		{"selected": false, "mark": 2},
		{"selected": false, "mark": 3},
		{"selected": false, "mark": 4},
		{"selected": false, "mark": 5}
	],
	"current_stars_count": 0,
	"current_negative_stars_count": 0,
	"days_to_send_review": [
		{"name": "When job is created", "value": 0},
		{"name": "1 day when job is completed", "value": 1},
		{"name": "2 days when job is completed", "value": 2},
		{"name": "3 days when job is completed", "value": 3},
		{"name": "4 days when job is completed", "value": 4},
		{"name": "5 days when job is completed", "value": 5},
		{"name": "When job is completed immediately", "value": 6}
	],
	"selectedDay": {"name": "When job is completed immediately", "value": 6},
	"reviews_autosend": 0,
	"welcomeReviewText": "",
	"successReviewText": "",
	"failReviewText": "",
	"success_key_name": "review_success_reminder",
	"fail_key_name": "review_fail_reminder",
	"reviewsFrontSite": [],
	"showReviewButton": [
		{"name": "When job is created", "value": 1},
		{"name": "When job is confirmed", "value": 2},
		{"name": "When job is closed", "value": 3}
	],
	"currentStateShowReviewButton": {"name": "When job is closed", "show": true}
}