{
	"date": {
		"value": "04/14/2018",
		"label": "Date",
		"raw": 1523664000,
		"field": "field_date",
		"old": "04/14/2018"
	},
	"status": {
		"value": " Pending",
		"label": "Status",
		"field": "field_approve",
		"raw": "1",
		"old": "1"
	},
	"minimum_time": {
		"value": "07:45",
		"label": "Minimum Move Time",
		"field": "field_minimum_move_time",
		"raw": 7.75,
		"old": "07:45"
	},
	"maximum_time": {
		"value": "08:15",
		"label": "Maximum Move time",
		"field": "field_maximum_move_time",
		"raw": 8.25,
		"old": "08:15"
	},
	"travel_time": {
		"value": "00:30",
		"label": "Travel Time",
		"field": "field_travel_time",
		"old": "00:30",
		"raw": 0.5
	},
	"move_size": {
		"value": "Room or less",
		"label": "Size of Move",
		"field": "field_size_of_move",
		"raw": "1",
		"old": "1"
	},
	"service_type": {
		"value": "Moving",
		"label": "Service Type",
		"field": "field_move_service_type",
		"raw": "1",
		"old": "1"
	},
	"crew": {
		"value": "4",
		"label": "Movers Count",
		"field": "field_movers_count",
		"old": "4"
	},
	"rate": {
		"value": "175",
		"label": "Price per hour",
		"field": "field_price_per_hour",
		"old": "175"
	},
	"field_moving_from": {
		"locality": "Boston",
		"administrative_area": "MA",
		"thoroughfare": "",
		"postal_code": "02222",
		"premise": ""
	},
	"adrfrom": {
		"value": "",
		"label": "Moving From",
		"field": "field_moving_from",
		"subfield": "thoroughfare",
		"old": ""
	},
	"city_from": {
		"value": "Boston",
		"label": "Origin city",
		"field": "field_moving_from",
		"subfield": "locality",
		"old": "Boston"
	},
	"zip_from": {
		"value": "02222",
		"label": "Origin zip zode",
		"field": "field_moving_from",
		"subfield": "postal_code",
		"old": "02222"
	},
	"state_from": {
		"value": "MA",
		"label": "Origin state",
		"field": "field_moving_from",
		"subfield": "administrative_area",
		"old": "MA"
	},
	"apt_from": {
		"value": null,
		"label": "Apt_from",
		"field": "field_apt_from",
		"old": null
	},
	"type_from": {
		"value": "No Stairs - Ground Floor",
		"label": "Type of Entarence (From)",
		"field": "field_type_of_entrance_from",
		"raw": "1",
		"old": "1"
	},
	"field_moving_to": {
		"locality": "Boston",
		"administrative_area": "MA",
		"thoroughfare": "",
		"postal_code": "02222",
		"premise": ""
	},
	"adrto": {
		"value": "",
		"label": "Destination address",
		"field": "field_moving_to",
		"subfield": "thoroughfare",
		"old": ""
	},
	"city_to": {
		"value": "Boston",
		"label": "Destination city",
		"field": "field_moving_to",
		"subfield": "locality",
		"old": "Boston"
	},
	"zip_to": {
		"value": "02222",
		"label": "Destination zip zode",
		"field": "field_moving_to",
		"subfield": "postal_code",
		"old": "02222"
	},
	"state_to": {
		"value": "MA",
		"label": "Destination state",
		"field": "field_moving_to",
		"subfield": "administrative_area",
		"old": "MA"
	},
	"type_to": {
		"value": "No Stairs - Ground Floor",
		"label": "Type of Entarence (To)",
		"field": "field_type_of_entrance_to_",
		"raw": "1",
		"old": "1"
	},
	"field_extra_pickup": {
		"locality": null,
		"premise": null,
		"administrative_area": null,
		"thoroughfare": null,
		"postal_code": null,
		"organisation_name": null
	},
	"field_extra_dropoff": {
		"locality": null,
		"premise": null,
		"administrative_area": null,
		"thoroughfare": null,
		"postal_code": null,
		"organisation_name": null
	},
	"field_move_images": [],
	"field_contract_images": [],
	"field_flat_rate_local_move": {
		"value": false,
		"old": false
	},
	"apt_to": {
		"value": null,
		"label": "Apt_to",
		"field": "field_apt_to",
		"old": null
	},
	"from": "Boston, MA, 02222",
	"to": "Boston, MA, 02222",
	"storage_rate": {
		"value": 100,
		"label": "Storage Price",
		"field": "field_storage_price",
		"old": 100
	},
	"reservation_rate": {
		"value": "0.00",
		"label": "Reservation_price",
		"field": "field_reservation_price",
		"old": "0.00"
	},
	"field_reservation_received": {
		"value": false,
		"label": "Reservation received",
		"field": "field_reservation_received",
		"old": false
	},
	"field_cubic_feet": {
		"value": true,
		"label": "cubic_feet",
		"field": "field_cubic_feet",
		"old": true
	},
	"field_long_distance_rate": {
		"value": "0.00",
		"label": "long_distance_rate",
		"field": "field_long_distance_rate",
		"old": "0.00"
	},
	"rooms": {
		"value": [],
		"label": "Extra Furnished Rooms",
		"field": "field_extra_furnished_rooms",
		"raw": [],
		"old": []
	},
	"commercial_extra_rooms": {
		"value": [],
		"label": "Commercial extra rooms",
		"field": "field_commercial_extra_rooms",
		"raw": [],
		"old": []
	},
	"name": "Draft User",
	"first_name": "Draft",
	"last_name": "User",
	"uid": {
		"field_user_first_name": "Draft",
		"field_user_last_name": "User",
		"field_primary_phone": "(111) 111-1111",
		"field_user_additional_phone": "",
		"field_isnew": true,
		"field_source": null,
		"field_google_calendar_email": null,
		"field_previous_login": "0",
		"field_is_home_estimate_login": "0",
		"uid": "5902",
		"name": "87user_1522841520@draft.www",
		"mail": "87user_1522841520@draft.www",
		"url": "http://192.168.0.104/user/5902",
		"edit_url": "http://192.168.0.104/user/5902/edit",
		"last_access": "1522844109",
		"last_login": "1522841662",
		"created": "1522841519",
		"roles": [
			"authenticated user"
		],
		"status": "1",
		"theme": "adminimal",
		"feeds_item_guid": null,
		"feeds_item_url": null,
		"feed_nid": null,
		"feed_node": null,
		"uuid": "bf8b6641-93d7-4b35-b2c6-f3f0aa64c64f",
		"settings": []
	},
	"send_additional_email": false,
	"email": "87user_1522841520@draft.www",
	"phone": "(111) 111-1111",
	"field_additional_phone": "",
	"field_parser_provider_name": "Moveboard",
	"field_parser_provider_id": null,
	"trucks": {
		"value": [],
		"label": "Truck",
		"raw": [],
		"old": [],
		"field": "field_list_truck"
	},
	"suggested_trucks": null,
	"delivery_trucks": {
		"value": [],
		"label": "Flat Rate Delivery trucks",
		"raw": [],
		"old": [],
		"field": "field_flat_rate_delivery_trucks"
	},
	"request_data": {
		"value": ""
	},
	"request_all_data": {
		"localdiscount": "25",
		"isDisplayQuoteEye": false,
		"showQuote": true,
		"travelTime": true,
		"request_distance": {
			"duration": 0.5,
			"distance": 1,
			"max_distance": 1,
			"zipFrom": "02222",
			"zipTo": "02222",
			"zipParking": "02222",
			"distances": {
				"AB": {
					"distance": 1,
					"duration": 0
				},
				"BC": {
					"distance": 1,
					"duration": 0
				},
				"CA": {
					"distance": 1,
					"duration": 0
				}
			},
			"duration_origin_destination": 0,
			"distance_origin_destination": 1
		},
		"surcharge_fuel": 0,
		"surcharge_fuel_avg": 0,
		"surcharge_fuel_perc": 0,
		"additionalBlock": {
			"title": "",
			"text": "",
			"isVisible": false
		},
		"add_money_discount": 0,
		"add_percent_discount": 0,
		"add_rate_discount": 0,
		"statistic": [],
		"valuation": {
			"selected": {
				"liability_amount": 7000,
				"deductible_level": "300",
				"valuation_type": 2,
				"valuation_charge": 210
			},
			"settings": {
				"valuation_plan": 0,
				"title": "customTitle"
			},
			"deductible_data": {
				"valuation_charge": [1, 2, 3]
			}
		},
		"additional_inventory": [],
		"invoice": {
			"rateDiscount": 0,
			"request_all_data": {
				"localdiscount": 0,
				"valuation": {
					"deductable_level": null,
					"valuation_charge": 210,
					"weight": 11662,
					"lability_amount": 6997.1999999999998,
					"liability_amount": 7000,
					"deductible_level": "0",
					"valuation_type": 1,
					"valuation_plan": 0
				}
			}
		},
		"userVisit": 1522841563
	},
	"delivery_time": "Actual Start Time - Start Time Max",
	"pref_time": "Any Time",
	"start_time1": {
		"value": "8:00 AM",
		"label": "Actual Start Time",
		"field": "field_actual_start_time",
		"raw": 0,
		"old": "8:00 AM"
	},
	"start_time2": {
		"value": "8:00 PM",
		"label": "Start Time Max",
		"field": "field_start_time_max",
		"raw": 0,
		"old": "8:00 PM"
	},
	"start_time": {
		"value": " Any Time",
		"field": "field_start_time",
		"raw": "1"
	},
	"distance": {
		"value": "1.00",
		"label": "Distance",
		"field": "field_distance",
		"old": "1.00"
	},
	"duration": {
		"value": "0.00",
		"label": "Travel Duration",
		"field": "field_duration",
		"old": "0.00"
	},
	"flat_rate_quote": {
		"value": null,
		"label": "Estimated Price",
		"field": "field_estimated_prise",
		"old": null
	},
	"field_usecalculator": {
		"value": true,
		"label": "useCalculator",
		"field": "field_usecalculator",
		"old": true
	},
	"field_useweighttype": {
		"value": "2",
		"label": "Weight Type",
		"field": "field_useweighttype",
		"old": "2"
	},
	"custom_weight": {
		"value": null,
		"label": "Custom Weight",
		"field": "field_customweight",
		"old": null
	},
	"field_double_travel_time": {
		"value": "00:15",
		"label": "Double Travel Time",
		"field": "field_double_travel_time",
		"old": "00:15",
		"raw": 0.25
	},
	"field_foreman": {
		"value": [],
		"label": "Foreman",
		"field": "field_foreman",
		"old": []
	},
	"field_helper": {
		"value": [],
		"label": "Helper",
		"field": "field_helper",
		"old": []
	},
	"field_date_confirmed": {
		"value": null,
		"raw": "04/06/2018 01:35 PM",
		"label": "Date Confirmed",
		"field": "field_date_confirmed",
		"old": null
	},
	"field_flags": {
		"value": [],
		"label": "Flags",
		"field": "field_flags",
		"old": []
	},
	"field_company_flags": {
		"value": [],
		"label": "Company Flags",
		"field": "field_company_flags"
	},
	"field_foreman_assign_time": {
		"value": null,
		"label": "Foreman Assign Time",
		"field": "field_foreman_assign_time",
		"old": null
	},
	"additional_comments": {
		"value": null,
		"label": "Additional Comments",
		"field": "field_additional_comments",
		"old": null
	},
	"field_quote_explanationn": null,
	"home_estimate_date": {
		"value": "",
		"label": "Home Estimate Date",
		"raw": false,
		"field": "field_home_estimate_date",
		"old": ""
	},
	"home_estimate_actual_start": {
		"value": null,
		"label": "Home Estimate Actual Start Time",
		"field": "field_home_estimate_actual_start",
		"old": null,
		"raw": 0
	},
	"home_estimate_start_time": {
		"value": null,
		"label": "Home Estimate Start Time",
		"field": "field_home_estimate_start_time",
		"old": null,
		"raw": 0
	},
	"home_estimate_time_duration": {
		"value": "00:00",
		"label": "Home Estimate Time Duration",
		"field": "field_home_estimate_time_duratio",
		"old": "00:00",
		"raw": 0
	},
	"home_estimate_assigned": {
		"value": null,
		"label": "Home Estimate assignedn",
		"field": "field_home_estimate_assignedn",
		"old": null
	},
	"home_estimate_status": {
		"value": "1",
		"label": "Home Estimate Status",
		"field": "field_home_estimate_status",
		"raw": " Schedule",
		"old": "1"
	},
	"home_estimator": {
		"value": null,
		"label": "Home Estimator",
		"field": "field_home_estimator",
		"old": null,
		"first_name": "",
		"last_name": ""
	},
	"home_estimate_date_created": {
		"value": "",
		"label": "Home Estimate Date Created",
		"raw": false,
		"field": "field_home_estimate_date_created",
		"old": ""
	},
	"field_grand_total_min": "1400.00",
	"field_grand_total_max": "1487.50",
	"field_grand_total_middle": "1443.75",
	"field_grand_total_closing": "240.00",
	"field_quote_min": "1400.00",
	"field_quote_max": "1487.50",
	"field_quote_middle": "1443.75",
	"field_quote_closing": "240.00",
	"field_allow_to_pending_info": "1",
	"storage_id": 0,
	"field_request_settings": {
		"inventoryVersion": 2,
		"storage_rate": {
			"min": "0.35",
			"max": "0.45",
			"hide_estimated": true
		}
	},
	"from_storage": 0,
	"request_link": "<i class=\"fa fa-external-link\"></i>http://192.168.0.104/request/4297",
	"day": "",
	"month": "",
	"year": "",
	"created": "1522841519",
	"changed": "1522841935",
	"manager": {
		"last_name": "Halavach",
		"first_name": "Roman"
	},
	"extraServices": [],
	"receipts": [],
	"receipts_total": 0,
	"contract_info": [],
	"user_created": "1",
	"labor_time": {
		"value": "00:00",
		"label": "Labor time",
		"field": "field_labor_time",
		"old": "00:00",
		"raw": 0
	},
	"field_commercial_company_name": {
		"value": "",
		"label": "Company commercial name",
		"field": "field_commercial_company_name",
		"old": ""
	},
	"schedule_delivery_date": {
		"value": "",
		"label": "Schedule delivery date",
		"raw": false,
		"field": "field_schedule_delivery_date"
	},
	"ld_sit_delivery_dates": null,
	"ld_status": null,
	"ld_job": false,
	"field_total_score_updated": "",
	"field_custom_commercial_item": {
		"cubic_feet": null,
		"is_checked": false,
		"name": null,
		"id": -1
	},
	"field_total_score": 0,
	"inventory": {
		"inventory_list": [
			{
				"id": 7,
				"count": 23,
				"oldCount": 15,
				"title": "Sofa, 4 Seat",
				"fid": 1,
				"rid": "15",
				"cf": "70",
				"photo": {
					"name": "Sofa, 4 Seat",
					"fid": "15",
					"path": "http://api.dev.stage.themoveboard.com:90/sites/default/files/styles/inventory/public/inventory/Sofa-4-seat_0.jpg?itok=hi7BBh6B"
				},
				"cubicFeet": "70"
			},
			{
				"id": 8,
				"count": 7,
				"oldCount": 7,
				"title": "Grill Small",
				"fid": 1,
				"rid": "13",
				"cf": "8",
				"photo": {
					"name": "Grill Small",
					"fid": "20",
					"path": "http://api.dev.stage.themoveboard.com:90/sites/default/files/styles/inventory/public/inventory/Grill-Small.jpg?itok=CM6LVF39"
				},
				"cubicFeet": "8"
			}
		],
		"statistics": null,
		"move_details": null
	},
	"ddate": {
		"value": "",
		"label": "Delivery Date",
		"raw": false,
		"field": "field_delivery_date"
	},
	"dstart_time1": {
		"value": null,
		"label": "Delivery start time1",
		"raw": "Delivery start time1",
		"field": "field_delivery_start_time1"
	},
	"dstart_time2": {
		"value": null,
		"label": "Delvery start time2",
		"raw": "Delvery start time2",
		"field": "field_delvery_start_time2"
	},
	"delivery_date_to": {
		"value": "",
		"label": "Delivery Date To",
		"raw": false,
		"field": "field_delivery_date_to"
	},
	"delivery_start_time": {
		"value": null,
		"label": "Delivery start",
		"raw": false,
		"field": "field_delivery_start"
	},
	"delivery_date_from": {
		"value": "",
		"label": "Delivery Date From",
		"raw": false,
		"field": "field_delivery_date_from"
	},
	"ddate_second": {
		"value": "",
		"label": "Delivery date second",
		"raw": false,
		"field": "field_delivery_date_second"
	},
	"nid": "4297",
	"payroll": [],
	"current_manager": {
		"field_user_first_name": "Roman",
		"field_user_last_name": "Halavach",
		"field_primary_phone": "(201) 680-8055",
		"field_user_additional_phone": null,
		"field_isnew": true,
		"field_source": null,
		"field_google_calendar_email": null,
		"field_previous_login": "1522842563",
		"field_is_home_estimate_login": "0",
		"uid": "1",
		"name": "roma4ke",
		"mail": "roma4ke@gmail.com",
		"url": "http://192.168.0.104/user/1",
		"edit_url": "http://192.168.0.104/user/1/edit",
		"last_access": "1523036081",
		"last_login": "1522846566",
		"created": "1379011643",
		"roles": [
			"authenticated user",
			"administrator"
		],
		"status": "1",
		"theme": "adminimal",
		"feeds_item_guid": null,
		"feeds_item_url": null,
		"feed_nid": null,
		"feed_node": null,
		"uuid": "a3742514-38ff-4933-8c85-120e35c89041",
		"settings": []
	},
	"ld_flag_status": {
		"value": "0",
		"label": null,
		"field": "field_ld_flag_status"
	}
}
