{
	"percentTable": {
		"header": [
			0
		],
		"body": [
			{
				"name": 0,
				"value": [
					0
				]
			}
		]
	},
	"fixedPriceTable": {
		"header": [
			0
		],
		"body": [
			{
				"name": 0,
				"value": [
					0
				]
			}
		]
	},
	"rateTable": {
		"header": [
			0
		],
		"body": [
			{
				"name": 0,
				"value": [
					0
				]
			}
		]
	}
}