{
	"arrivy_connection_status": false,
	"arrivy_authorization_key": "94e42293-04d8",
	"arrivy_authorization_token": "q6qzFYBqaoUds8LLt0Co6Q",
	"arrivy_sms_notification": false,
	"arrivy.arrivy_email_notification": false
}
