{
  "old":{
  "deliveryCrew":{
    "helpers":[
      "5988",
      "5901"
    ],
    "foreman":"5904"
  }
  },
  "new":{
    "deliveryCrew":{
      "helpers":[
        "5903",
        "5902"
      ],
      "foreman":"5905"
    }

  }
}
