{
	"sum": {
		"paid": 4321,
		"unpaid": 19028.75,
		"all": 23349.75
	},
	"count": {
		"paid": 1,
		"unpaid": 9,
		"all": 10
	},
	"_meta": {
		"currentPage": 0,
		"pageCount": 1,
		"perPage": 25,
		"totalCount": 10
	},
	"items": [
		{
			"id": "18",
			"client_name": "aa@bb.cc aa@bb.cc",
			"description": "\u043e\u0440\u043f\u0441\u043e\u0440\u0441",
			"invoice_date": "1517385981",
			"total": 360,
			"status": 2,
			"storage_request_id": "4902"
		},
		{
			"id": "15",
			"client_name": "asdfasd fasdfasfg",
			"description": "Move request crate charge",
			"invoice_date": "1516809651",
			"total": "4321",
			"status": 3,
			"storage_request_id": "4871"
		},
		{
			"id": "14",
			"client_name": "dsfgsdfg sdfgsd",
			"description": "Move request crate charge",
			"invoice_date": "1516809361",
			"total": 0,
			"status": 0,
			"storage_request_id": "4870"
		},
		{
			"id": "13",
			"client_name": "asdfa fasdfa",
			"description": "Move request crate charge",
			"invoice_date": "1516809303",
			"total": 0,
			"status": 0,
			"storage_request_id": "4869"
		},
		{
			"id": "12",
			"client_name": "dfgsdfg sdfgsd",
			"description": "sdfasdf",
			"invoice_date": "1516806039",
			"total": 2462,
			"status": 1,
			"storage_request_id": "4868"
		},
		{
			"id": "11",
			"client_name": "asdfasd fasdfasdf",
			"description": "trdfaaawtr",
			"invoice_date": "1516711514",
			"total": 6210,
			"status": 1,
			"storage_request_id": "4861"
		},
		{
			"id": "10",
			"client_name": "tyttyth teyrdgdyt",
			"description": "adaadfsfffh",
			"invoice_date": "1516711478",
			"total": 3385.8000000000002,
			"status": 1,
			"storage_request_id": "4863"
		},
		{
			"id": "9",
			"client_name": "Draft User",
			"description": "ddsdd",
			"invoice_date": "1516711440",
			"total": 2600,
			"status": 1,
			"storage_request_id": "4864"
		},
		{
			"id": "8",
			"client_name": "Draft User",
			"description": "ggggg",
			"invoice_date": "1516711375",
			"total": 4009.9499999999998,
			"status": 2,
			"storage_request_id": "4864"
		},
		{
			"id": "7",
			"client_name": "Draft User",
			"description": "asdf",
			"invoice_date": "1516708552",
			"total": 1,
			"status": 1,
			"storage_request_id": "4866"
		}
	]
}