{
	"inventory_item_id": "300",
	"name": "draw the smile",
	"edit": false,
	"entity_id": "4366",
	"extra_services": [
		{
			"services_default_value": "50",
			"services_name": "Cost",
			"services_read_only": true,
			"services_type": "Amount"
		},
		{
			"services_default_value": 2,
			"services_name": "Count",
			"services_read_only": true,
			"services_type": "Number"
		}
	]
}