{
	"data": [
		{
			"room_id": "15",
			"name": "All",
			"image_link": "/moveBoard/content/img/icons/boxes.png",
			"type": "0",
			"created": "1506939247",
			"weight": "1",
			"uri": "/moveBoard/content/img/icons/boxes.png",
			"filters": [
				{
					"filter_id": "11",
					"weight": "0",
					"name": "Bed, Mattress",
					"type": "0",
					"rooms": [
						"1",
						"2",
						"5",
						"7",
						"8",
						"9",
						"10",
						"11",
						"12",
						"13",
						"15",
						"16",
						"17",
						"20",
						"21",
						"22",
						"23",
						"24",
						"25",
						"26",
						"27",
						"28",
						"29",
						"30",
						"31"
					]
				},
				{
					"filter_id": "3",
					"weight": "1",
					"name": "Boxes, Totes",
					"type": "0",
					"rooms": [
						"1",
						"2",
						"5",
						"7",
						"8",
						"9",
						"10",
						"11",
						"12",
						"13",
						"15",
						"16",
						"17",
						"20",
						"21",
						"22",
						"23",
						"24",
						"25",
						"26",
						"27",
						"28",
						"29",
						"30",
						"31"
					]
				},
				{
					"filter_id": "17",
					"weight": "1",
					"name": "Miscellaneous",
					"type": "0",
					"rooms": [
						"1",
						"2",
						"5",
						"7",
						"8",
						"9",
						"10",
						"11",
						"12",
						"13",
						"15",
						"16",
						"17",
						"20",
						"21",
						"22",
						"23",
						"24",
						"25",
						"26",
						"27",
						"28",
						"29",
						"30",
						"31"
					]
				},
				{
					"filter_id": "4",
					"weight": "2",
					"name": "Dresser, Mirror",
					"type": "0",
					"rooms": [
						"1",
						"2",
						"5",
						"7",
						"8",
						"9",
						"10",
						"11",
						"12",
						"13",
						"15",
						"16",
						"17",
						"20",
						"21",
						"22",
						"23",
						"24",
						"25",
						"26",
						"27",
						"28",
						"29",
						"30",
						"31"
					]
				},
				{
					"filter_id": "15",
					"weight": "4",
					"name": "Sofa, Chair",
					"type": "0",
					"rooms": [
						"1",
						"2",
						"5",
						"7",
						"8",
						"9",
						"10",
						"11",
						"12",
						"13",
						"15",
						"16",
						"17",
						"20",
						"21",
						"22",
						"23",
						"24",
						"25",
						"26",
						"27",
						"28",
						"29",
						"30",
						"31"
					]
				}
			]
		},
		{
			"room_id": "5",
			"name": "Bedroom",
			"image_link": "/moveBoard/content/img/icons/bed.png",
			"type": "0",
			"created": "1506939247",
			"weight": "2",
			"uri": "/moveBoard/content/img/icons/bed.png",
			"filters": [
				{
					"filter_id": "11",
					"weight": "0",
					"name": "Bed, Mattress",
					"type": "0",
					"rooms": [
						"1",
						"2",
						"5",
						"7",
						"8",
						"9",
						"10",
						"11",
						"12",
						"13",
						"15",
						"16",
						"17",
						"20",
						"21",
						"22",
						"23",
						"24",
						"25",
						"26",
						"27",
						"28",
						"29",
						"30",
						"31"
					]
				},
				{
					"filter_id": "17",
					"weight": "1",
					"name": "Miscellaneous",
					"type": "0",
					"rooms": [
						"1",
						"2",
						"5",
						"7",
						"8",
						"9",
						"10",
						"11",
						"12",
						"13",
						"15",
						"16",
						"17",
						"20",
						"21",
						"22",
						"23",
						"24",
						"25",
						"26",
						"27",
						"28",
						"29",
						"30",
						"31"
					]
				},
				{
					"filter_id": "3",
					"weight": "1",
					"name": "Boxes, Totes",
					"type": "0",
					"rooms": [
						"1",
						"2",
						"5",
						"7",
						"8",
						"9",
						"10",
						"11",
						"12",
						"13",
						"15",
						"16",
						"17",
						"20",
						"21",
						"22",
						"23",
						"24",
						"25",
						"26",
						"27",
						"28",
						"29",
						"30",
						"31"
					]
				},
				{
					"filter_id": "4",
					"weight": "2",
					"name": "Dresser, Mirror",
					"type": "0",
					"rooms": [
						"1",
						"2",
						"5",
						"7",
						"8",
						"9",
						"10",
						"11",
						"12",
						"13",
						"15",
						"16",
						"17",
						"20",
						"21",
						"22",
						"23",
						"24",
						"25",
						"26",
						"27",
						"28",
						"29",
						"30",
						"31"
					]
				},
				{
					"filter_id": "15",
					"weight": "4",
					"name": "Sofa, Chair",
					"type": "0",
					"rooms": [
						"1",
						"2",
						"5",
						"7",
						"8",
						"9",
						"10",
						"11",
						"12",
						"13",
						"15",
						"16",
						"17",
						"20",
						"21",
						"22",
						"23",
						"24",
						"25",
						"26",
						"27",
						"28",
						"29",
						"30",
						"31"
					]
				}
			]
		},
		{
			"room_id": "31",
			"name": "Bedroom 2",
			"image_link": "/moveBoard/content/img/icons/bed.png",
			"type": "2",
			"created": "1511447204",
			"weight": "3",
			"uri": "/moveBoard/content/img/icons/bed.png",
			"filters": [
				{
					"filter_id": "17",
					"weight": "0",
					"name": "Miscellaneous",
					"type": "0",
					"rooms": [
						"1",
						"2",
						"5",
						"7",
						"8",
						"9",
						"10",
						"11",
						"12",
						"13",
						"15",
						"16",
						"17",
						"20",
						"21",
						"22",
						"23",
						"24",
						"25",
						"26",
						"27",
						"28",
						"29",
						"30",
						"31"
					]
				},
				{
					"filter_id": "3",
					"weight": "1",
					"name": "Boxes, Totes",
					"type": "0",
					"rooms": [
						"1",
						"2",
						"5",
						"7",
						"8",
						"9",
						"10",
						"11",
						"12",
						"13",
						"15",
						"16",
						"17",
						"20",
						"21",
						"22",
						"23",
						"24",
						"25",
						"26",
						"27",
						"28",
						"29",
						"30",
						"31"
					]
				},
				{
					"filter_id": "4",
					"weight": "2",
					"name": "Dresser, Mirror",
					"type": "0",
					"rooms": [
						"1",
						"2",
						"5",
						"7",
						"8",
						"9",
						"10",
						"11",
						"12",
						"13",
						"15",
						"16",
						"17",
						"20",
						"21",
						"22",
						"23",
						"24",
						"25",
						"26",
						"27",
						"28",
						"29",
						"30",
						"31"
					]
				},
				{
					"filter_id": "15",
					"weight": "4",
					"name": "Sofa, Chair",
					"type": "0",
					"rooms": [
						"1",
						"2",
						"5",
						"7",
						"8",
						"9",
						"10",
						"11",
						"12",
						"13",
						"15",
						"16",
						"17",
						"20",
						"21",
						"22",
						"23",
						"24",
						"25",
						"26",
						"27",
						"28",
						"29",
						"30",
						"31"
					]
				},
				{
					"filter_id": "11",
					"weight": "5",
					"name": "Bed, Mattress",
					"type": "0",
					"rooms": [
						"1",
						"2",
						"5",
						"7",
						"8",
						"9",
						"10",
						"11",
						"12",
						"13",
						"15",
						"16",
						"17",
						"20",
						"21",
						"22",
						"23",
						"24",
						"25",
						"26",
						"27",
						"28",
						"29",
						"30",
						"31"
					]
				}
			]
		},
		{
			"room_id": "1",
			"name": "Studio",
			"image_link": "/moveBoard/content/img/icons/bed.png",
			"type": "0",
			"created": "1506939247",
			"weight": "4",
			"uri": "/moveBoard/content/img/icons/bed.png",
			"filters": [
				{
					"filter_id": "11",
					"weight": "0",
					"name": "Bed, Mattress",
					"type": "0",
					"rooms": [
						"1",
						"2",
						"5",
						"7",
						"8",
						"9",
						"10",
						"11",
						"12",
						"13",
						"15",
						"16",
						"17",
						"20",
						"21",
						"22",
						"23",
						"24",
						"25",
						"26",
						"27",
						"28",
						"29",
						"30",
						"31"
					]
				},
				{
					"filter_id": "17",
					"weight": "1",
					"name": "Miscellaneous",
					"type": "0",
					"rooms": [
						"1",
						"2",
						"5",
						"7",
						"8",
						"9",
						"10",
						"11",
						"12",
						"13",
						"15",
						"16",
						"17",
						"20",
						"21",
						"22",
						"23",
						"24",
						"25",
						"26",
						"27",
						"28",
						"29",
						"30",
						"31"
					]
				},
				{
					"filter_id": "13",
					"weight": "1",
					"name": "Tables",
					"type": "0",
					"rooms": [
						"1",
						"2",
						"7",
						"8",
						"9",
						"10",
						"11"
					]
				},
				{
					"filter_id": "3",
					"weight": "1",
					"name": "Boxes, Totes",
					"type": "0",
					"rooms": [
						"1",
						"2",
						"5",
						"7",
						"8",
						"9",
						"10",
						"11",
						"12",
						"13",
						"15",
						"16",
						"17",
						"20",
						"21",
						"22",
						"23",
						"24",
						"25",
						"26",
						"27",
						"28",
						"29",
						"30",
						"31"
					]
				},
				{
					"filter_id": "4",
					"weight": "2",
					"name": "Dresser, Mirror",
					"type": "0",
					"rooms": [
						"1",
						"2",
						"5",
						"7",
						"8",
						"9",
						"10",
						"11",
						"12",
						"13",
						"15",
						"16",
						"17",
						"20",
						"21",
						"22",
						"23",
						"24",
						"25",
						"26",
						"27",
						"28",
						"29",
						"30",
						"31"
					]
				},
				{
					"filter_id": "15",
					"weight": "4",
					"name": "Sofa, Chair",
					"type": "0",
					"rooms": [
						"1",
						"2",
						"5",
						"7",
						"8",
						"9",
						"10",
						"11",
						"12",
						"13",
						"15",
						"16",
						"17",
						"20",
						"21",
						"22",
						"23",
						"24",
						"25",
						"26",
						"27",
						"28",
						"29",
						"30",
						"31"
					]
				},
				{
					"filter_id": "24",
					"weight": "4",
					"name": "TV, Electronics, Appliance",
					"type": "0",
					"rooms": [
						"1",
						"2",
						"7",
						"9",
						"10",
						"11",
						"12",
						"17"
					]
				},
				{
					"filter_id": "19",
					"weight": "5",
					"name": "Sports & Games",
					"type": "0",
					"rooms": [
						"1",
						"10",
						"17"
					]
				},
				{
					"filter_id": "26",
					"weight": "9",
					"name": "TV Stand, Cabinet, China",
					"type": "0",
					"rooms": [
						"1",
						"7",
						"8",
						"9",
						"10",
						"11"
					]
				},
				{
					"filter_id": "25",
					"weight": "11",
					"name": "Storage, Desk, Bookcase",
					"type": "0",
					"rooms": [
						"1",
						"7",
						"9",
						"10",
						"11"
					]
				}
			]
		},
		{
			"room_id": "2",
			"name": "Kitchen",
			"image_link": "/moveBoard/content/img/icons/cooking.png",
			"type": "0",
			"created": "1506939247",
			"weight": "5",
			"uri": "/moveBoard/content/img/icons/cooking.png",
			"filters": [
				{
					"filter_id": "11",
					"weight": "0",
					"name": "Bed, Mattress",
					"type": "0",
					"rooms": [
						"1",
						"2",
						"5",
						"7",
						"8",
						"9",
						"10",
						"11",
						"12",
						"13",
						"15",
						"16",
						"17",
						"20",
						"21",
						"22",
						"23",
						"24",
						"25",
						"26",
						"27",
						"28",
						"29",
						"30",
						"31"
					]
				},
				{
					"filter_id": "17",
					"weight": "1",
					"name": "Miscellaneous",
					"type": "0",
					"rooms": [
						"1",
						"2",
						"5",
						"7",
						"8",
						"9",
						"10",
						"11",
						"12",
						"13",
						"15",
						"16",
						"17",
						"20",
						"21",
						"22",
						"23",
						"24",
						"25",
						"26",
						"27",
						"28",
						"29",
						"30",
						"31"
					]
				},
				{
					"filter_id": "13",
					"weight": "1",
					"name": "Tables",
					"type": "0",
					"rooms": [
						"1",
						"2",
						"7",
						"8",
						"9",
						"10",
						"11"
					]
				},
				{
					"filter_id": "3",
					"weight": "1",
					"name": "Boxes, Totes",
					"type": "0",
					"rooms": [
						"1",
						"2",
						"5",
						"7",
						"8",
						"9",
						"10",
						"11",
						"12",
						"13",
						"15",
						"16",
						"17",
						"20",
						"21",
						"22",
						"23",
						"24",
						"25",
						"26",
						"27",
						"28",
						"29",
						"30",
						"31"
					]
				},
				{
					"filter_id": "4",
					"weight": "2",
					"name": "Dresser, Mirror",
					"type": "0",
					"rooms": [
						"1",
						"2",
						"5",
						"7",
						"8",
						"9",
						"10",
						"11",
						"12",
						"13",
						"15",
						"16",
						"17",
						"20",
						"21",
						"22",
						"23",
						"24",
						"25",
						"26",
						"27",
						"28",
						"29",
						"30",
						"31"
					]
				},
				{
					"filter_id": "15",
					"weight": "4",
					"name": "Sofa, Chair",
					"type": "0",
					"rooms": [
						"1",
						"2",
						"5",
						"7",
						"8",
						"9",
						"10",
						"11",
						"12",
						"13",
						"15",
						"16",
						"17",
						"20",
						"21",
						"22",
						"23",
						"24",
						"25",
						"26",
						"27",
						"28",
						"29",
						"30",
						"31"
					]
				},
				{
					"filter_id": "24",
					"weight": "4",
					"name": "TV, Electronics, Appliance",
					"type": "0",
					"rooms": [
						"1",
						"2",
						"7",
						"9",
						"10",
						"11",
						"12",
						"17"
					]
				},
				{
					"filter_id": "27",
					"weight": "10",
					"name": "Odds & Ends",
					"type": "0",
					"rooms": [
						"2",
						"7",
						"9",
						"10",
						"11"
					]
				}
			]
		},
		{
			"room_id": "7",
			"name": "Living Room",
			"image_link": "/moveBoard/content/img/icons/livingroom.png",
			"type": "0",
			"created": "1506939247",
			"weight": "6",
			"uri": "/moveBoard/content/img/icons/livingroom.png",
			"filters": [
				{
					"filter_id": "11",
					"weight": "0",
					"name": "Bed, Mattress",
					"type": "0",
					"rooms": [
						"1",
						"2",
						"5",
						"7",
						"8",
						"9",
						"10",
						"11",
						"12",
						"13",
						"15",
						"16",
						"17",
						"20",
						"21",
						"22",
						"23",
						"24",
						"25",
						"26",
						"27",
						"28",
						"29",
						"30",
						"31"
					]
				},
				{
					"filter_id": "17",
					"weight": "1",
					"name": "Miscellaneous",
					"type": "0",
					"rooms": [
						"1",
						"2",
						"5",
						"7",
						"8",
						"9",
						"10",
						"11",
						"12",
						"13",
						"15",
						"16",
						"17",
						"20",
						"21",
						"22",
						"23",
						"24",
						"25",
						"26",
						"27",
						"28",
						"29",
						"30",
						"31"
					]
				},
				{
					"filter_id": "3",
					"weight": "1",
					"name": "Boxes, Totes",
					"type": "0",
					"rooms": [
						"1",
						"2",
						"5",
						"7",
						"8",
						"9",
						"10",
						"11",
						"12",
						"13",
						"15",
						"16",
						"17",
						"20",
						"21",
						"22",
						"23",
						"24",
						"25",
						"26",
						"27",
						"28",
						"29",
						"30",
						"31"
					]
				},
				{
					"filter_id": "13",
					"weight": "1",
					"name": "Tables",
					"type": "0",
					"rooms": [
						"1",
						"2",
						"7",
						"8",
						"9",
						"10",
						"11"
					]
				},
				{
					"filter_id": "4",
					"weight": "2",
					"name": "Dresser, Mirror",
					"type": "0",
					"rooms": [
						"1",
						"2",
						"5",
						"7",
						"8",
						"9",
						"10",
						"11",
						"12",
						"13",
						"15",
						"16",
						"17",
						"20",
						"21",
						"22",
						"23",
						"24",
						"25",
						"26",
						"27",
						"28",
						"29",
						"30",
						"31"
					]
				},
				{
					"filter_id": "15",
					"weight": "4",
					"name": "Sofa, Chair",
					"type": "0",
					"rooms": [
						"1",
						"2",
						"5",
						"7",
						"8",
						"9",
						"10",
						"11",
						"12",
						"13",
						"15",
						"16",
						"17",
						"20",
						"21",
						"22",
						"23",
						"24",
						"25",
						"26",
						"27",
						"28",
						"29",
						"30",
						"31"
					]
				},
				{
					"filter_id": "24",
					"weight": "4",
					"name": "TV, Electronics, Appliance",
					"type": "0",
					"rooms": [
						"1",
						"2",
						"7",
						"9",
						"10",
						"11",
						"12",
						"17"
					]
				},
				{
					"filter_id": "26",
					"weight": "9",
					"name": "TV Stand, Cabinet, China",
					"type": "0",
					"rooms": [
						"1",
						"7",
						"8",
						"9",
						"10",
						"11"
					]
				},
				{
					"filter_id": "27",
					"weight": "10",
					"name": "Odds & Ends",
					"type": "0",
					"rooms": [
						"2",
						"7",
						"9",
						"10",
						"11"
					]
				},
				{
					"filter_id": "25",
					"weight": "11",
					"name": "Storage, Desk, Bookcase",
					"type": "0",
					"rooms": [
						"1",
						"7",
						"9",
						"10",
						"11"
					]
				}
			]
		},
		{
			"room_id": "8",
			"name": "Dining Room",
			"image_link": "/moveBoard/content/img/icons/cutlery.png",
			"type": "0",
			"created": "1506939247",
			"weight": "7",
			"uri": "/moveBoard/content/img/icons/cutlery.png",
			"filters": [
				{
					"filter_id": "11",
					"weight": "0",
					"name": "Bed, Mattress",
					"type": "0",
					"rooms": [
						"1",
						"2",
						"5",
						"7",
						"8",
						"9",
						"10",
						"11",
						"12",
						"13",
						"15",
						"16",
						"17",
						"20",
						"21",
						"22",
						"23",
						"24",
						"25",
						"26",
						"27",
						"28",
						"29",
						"30",
						"31"
					]
				},
				{
					"filter_id": "17",
					"weight": "1",
					"name": "Miscellaneous",
					"type": "0",
					"rooms": [
						"1",
						"2",
						"5",
						"7",
						"8",
						"9",
						"10",
						"11",
						"12",
						"13",
						"15",
						"16",
						"17",
						"20",
						"21",
						"22",
						"23",
						"24",
						"25",
						"26",
						"27",
						"28",
						"29",
						"30",
						"31"
					]
				},
				{
					"filter_id": "13",
					"weight": "1",
					"name": "Tables",
					"type": "0",
					"rooms": [
						"1",
						"2",
						"7",
						"8",
						"9",
						"10",
						"11"
					]
				},
				{
					"filter_id": "3",
					"weight": "1",
					"name": "Boxes, Totes",
					"type": "0",
					"rooms": [
						"1",
						"2",
						"5",
						"7",
						"8",
						"9",
						"10",
						"11",
						"12",
						"13",
						"15",
						"16",
						"17",
						"20",
						"21",
						"22",
						"23",
						"24",
						"25",
						"26",
						"27",
						"28",
						"29",
						"30",
						"31"
					]
				},
				{
					"filter_id": "4",
					"weight": "2",
					"name": "Dresser, Mirror",
					"type": "0",
					"rooms": [
						"1",
						"2",
						"5",
						"7",
						"8",
						"9",
						"10",
						"11",
						"12",
						"13",
						"15",
						"16",
						"17",
						"20",
						"21",
						"22",
						"23",
						"24",
						"25",
						"26",
						"27",
						"28",
						"29",
						"30",
						"31"
					]
				},
				{
					"filter_id": "15",
					"weight": "4",
					"name": "Sofa, Chair",
					"type": "0",
					"rooms": [
						"1",
						"2",
						"5",
						"7",
						"8",
						"9",
						"10",
						"11",
						"12",
						"13",
						"15",
						"16",
						"17",
						"20",
						"21",
						"22",
						"23",
						"24",
						"25",
						"26",
						"27",
						"28",
						"29",
						"30",
						"31"
					]
				},
				{
					"filter_id": "26",
					"weight": "9",
					"name": "TV Stand, Cabinet, China",
					"type": "0",
					"rooms": [
						"1",
						"7",
						"8",
						"9",
						"10",
						"11"
					]
				}
			]
		},
		{
			"room_id": "9",
			"name": "Office",
			"image_link": "/moveBoard/content/img/icons/desk.png",
			"type": "0",
			"created": "1506939247",
			"weight": "8",
			"uri": "/moveBoard/content/img/icons/desk.png",
			"filters": [
				{
					"filter_id": "11",
					"weight": "0",
					"name": "Bed, Mattress",
					"type": "0",
					"rooms": [
						"1",
						"2",
						"5",
						"7",
						"8",
						"9",
						"10",
						"11",
						"12",
						"13",
						"15",
						"16",
						"17",
						"20",
						"21",
						"22",
						"23",
						"24",
						"25",
						"26",
						"27",
						"28",
						"29",
						"30",
						"31"
					]
				},
				{
					"filter_id": "17",
					"weight": "1",
					"name": "Miscellaneous",
					"type": "0",
					"rooms": [
						"1",
						"2",
						"5",
						"7",
						"8",
						"9",
						"10",
						"11",
						"12",
						"13",
						"15",
						"16",
						"17",
						"20",
						"21",
						"22",
						"23",
						"24",
						"25",
						"26",
						"27",
						"28",
						"29",
						"30",
						"31"
					]
				},
				{
					"filter_id": "3",
					"weight": "1",
					"name": "Boxes, Totes",
					"type": "0",
					"rooms": [
						"1",
						"2",
						"5",
						"7",
						"8",
						"9",
						"10",
						"11",
						"12",
						"13",
						"15",
						"16",
						"17",
						"20",
						"21",
						"22",
						"23",
						"24",
						"25",
						"26",
						"27",
						"28",
						"29",
						"30",
						"31"
					]
				},
				{
					"filter_id": "13",
					"weight": "1",
					"name": "Tables",
					"type": "0",
					"rooms": [
						"1",
						"2",
						"7",
						"8",
						"9",
						"10",
						"11"
					]
				},
				{
					"filter_id": "4",
					"weight": "2",
					"name": "Dresser, Mirror",
					"type": "0",
					"rooms": [
						"1",
						"2",
						"5",
						"7",
						"8",
						"9",
						"10",
						"11",
						"12",
						"13",
						"15",
						"16",
						"17",
						"20",
						"21",
						"22",
						"23",
						"24",
						"25",
						"26",
						"27",
						"28",
						"29",
						"30",
						"31"
					]
				},
				{
					"filter_id": "15",
					"weight": "4",
					"name": "Sofa, Chair",
					"type": "0",
					"rooms": [
						"1",
						"2",
						"5",
						"7",
						"8",
						"9",
						"10",
						"11",
						"12",
						"13",
						"15",
						"16",
						"17",
						"20",
						"21",
						"22",
						"23",
						"24",
						"25",
						"26",
						"27",
						"28",
						"29",
						"30",
						"31"
					]
				},
				{
					"filter_id": "24",
					"weight": "4",
					"name": "TV, Electronics, Appliance",
					"type": "0",
					"rooms": [
						"1",
						"2",
						"7",
						"9",
						"10",
						"11",
						"12",
						"17"
					]
				},
				{
					"filter_id": "26",
					"weight": "9",
					"name": "TV Stand, Cabinet, China",
					"type": "0",
					"rooms": [
						"1",
						"7",
						"8",
						"9",
						"10",
						"11"
					]
				},
				{
					"filter_id": "27",
					"weight": "10",
					"name": "Odds & Ends",
					"type": "0",
					"rooms": [
						"2",
						"7",
						"9",
						"10",
						"11"
					]
				},
				{
					"filter_id": "25",
					"weight": "11",
					"name": "Storage, Desk, Bookcase",
					"type": "0",
					"rooms": [
						"1",
						"7",
						"9",
						"10",
						"11"
					]
				}
			]
		},
		{
			"room_id": "10",
			"name": "Extra Rooms",
			"image_link": "/moveBoard/content/img/icons/bed.png",
			"type": "0",
			"created": "1506939247",
			"weight": "9",
			"uri": "/moveBoard/content/img/icons/bed.png",
			"filters": [
				{
					"filter_id": "11",
					"weight": "0",
					"name": "Bed, Mattress",
					"type": "0",
					"rooms": [
						"1",
						"2",
						"5",
						"7",
						"8",
						"9",
						"10",
						"11",
						"12",
						"13",
						"15",
						"16",
						"17",
						"20",
						"21",
						"22",
						"23",
						"24",
						"25",
						"26",
						"27",
						"28",
						"29",
						"30",
						"31"
					]
				},
				{
					"filter_id": "17",
					"weight": "1",
					"name": "Miscellaneous",
					"type": "0",
					"rooms": [
						"1",
						"2",
						"5",
						"7",
						"8",
						"9",
						"10",
						"11",
						"12",
						"13",
						"15",
						"16",
						"17",
						"20",
						"21",
						"22",
						"23",
						"24",
						"25",
						"26",
						"27",
						"28",
						"29",
						"30",
						"31"
					]
				},
				{
					"filter_id": "3",
					"weight": "1",
					"name": "Boxes, Totes",
					"type": "0",
					"rooms": [
						"1",
						"2",
						"5",
						"7",
						"8",
						"9",
						"10",
						"11",
						"12",
						"13",
						"15",
						"16",
						"17",
						"20",
						"21",
						"22",
						"23",
						"24",
						"25",
						"26",
						"27",
						"28",
						"29",
						"30",
						"31"
					]
				},
				{
					"filter_id": "13",
					"weight": "1",
					"name": "Tables",
					"type": "0",
					"rooms": [
						"1",
						"2",
						"7",
						"8",
						"9",
						"10",
						"11"
					]
				},
				{
					"filter_id": "4",
					"weight": "2",
					"name": "Dresser, Mirror",
					"type": "0",
					"rooms": [
						"1",
						"2",
						"5",
						"7",
						"8",
						"9",
						"10",
						"11",
						"12",
						"13",
						"15",
						"16",
						"17",
						"20",
						"21",
						"22",
						"23",
						"24",
						"25",
						"26",
						"27",
						"28",
						"29",
						"30",
						"31"
					]
				},
				{
					"filter_id": "24",
					"weight": "4",
					"name": "TV, Electronics, Appliance",
					"type": "0",
					"rooms": [
						"1",
						"2",
						"7",
						"9",
						"10",
						"11",
						"12",
						"17"
					]
				},
				{
					"filter_id": "15",
					"weight": "4",
					"name": "Sofa, Chair",
					"type": "0",
					"rooms": [
						"1",
						"2",
						"5",
						"7",
						"8",
						"9",
						"10",
						"11",
						"12",
						"13",
						"15",
						"16",
						"17",
						"20",
						"21",
						"22",
						"23",
						"24",
						"25",
						"26",
						"27",
						"28",
						"29",
						"30",
						"31"
					]
				},
				{
					"filter_id": "19",
					"weight": "5",
					"name": "Sports & Games",
					"type": "0",
					"rooms": [
						"1",
						"10",
						"17"
					]
				},
				{
					"filter_id": "21",
					"weight": "8",
					"name": "Musical Instrument",
					"type": "0",
					"rooms": [
						"10",
						"17"
					]
				},
				{
					"filter_id": "26",
					"weight": "9",
					"name": "TV Stand, Cabinet, China",
					"type": "0",
					"rooms": [
						"1",
						"7",
						"8",
						"9",
						"10",
						"11"
					]
				},
				{
					"filter_id": "27",
					"weight": "10",
					"name": "Odds & Ends",
					"type": "0",
					"rooms": [
						"2",
						"7",
						"9",
						"10",
						"11"
					]
				},
				{
					"filter_id": "25",
					"weight": "11",
					"name": "Storage, Desk, Bookcase",
					"type": "0",
					"rooms": [
						"1",
						"7",
						"9",
						"10",
						"11"
					]
				}
			]
		},
		{
			"room_id": "11",
			"name": "Basement",
			"image_link": "/moveBoard/content/img/icons/stairs.png",
			"type": "0",
			"created": "1506939247",
			"weight": "10",
			"uri": "/moveBoard/content/img/icons/stairs.png",
			"filters": [
				{
					"filter_id": "11",
					"weight": "0",
					"name": "Bed, Mattress",
					"type": "0",
					"rooms": [
						"1",
						"2",
						"5",
						"7",
						"8",
						"9",
						"10",
						"11",
						"12",
						"13",
						"15",
						"16",
						"17",
						"20",
						"21",
						"22",
						"23",
						"24",
						"25",
						"26",
						"27",
						"28",
						"29",
						"30",
						"31"
					]
				},
				{
					"filter_id": "17",
					"weight": "1",
					"name": "Miscellaneous",
					"type": "0",
					"rooms": [
						"1",
						"2",
						"5",
						"7",
						"8",
						"9",
						"10",
						"11",
						"12",
						"13",
						"15",
						"16",
						"17",
						"20",
						"21",
						"22",
						"23",
						"24",
						"25",
						"26",
						"27",
						"28",
						"29",
						"30",
						"31"
					]
				},
				{
					"filter_id": "3",
					"weight": "1",
					"name": "Boxes, Totes",
					"type": "0",
					"rooms": [
						"1",
						"2",
						"5",
						"7",
						"8",
						"9",
						"10",
						"11",
						"12",
						"13",
						"15",
						"16",
						"17",
						"20",
						"21",
						"22",
						"23",
						"24",
						"25",
						"26",
						"27",
						"28",
						"29",
						"30",
						"31"
					]
				},
				{
					"filter_id": "13",
					"weight": "1",
					"name": "Tables",
					"type": "0",
					"rooms": [
						"1",
						"2",
						"7",
						"8",
						"9",
						"10",
						"11"
					]
				},
				{
					"filter_id": "4",
					"weight": "2",
					"name": "Dresser, Mirror",
					"type": "0",
					"rooms": [
						"1",
						"2",
						"5",
						"7",
						"8",
						"9",
						"10",
						"11",
						"12",
						"13",
						"15",
						"16",
						"17",
						"20",
						"21",
						"22",
						"23",
						"24",
						"25",
						"26",
						"27",
						"28",
						"29",
						"30",
						"31"
					]
				},
				{
					"filter_id": "15",
					"weight": "4",
					"name": "Sofa, Chair",
					"type": "0",
					"rooms": [
						"1",
						"2",
						"5",
						"7",
						"8",
						"9",
						"10",
						"11",
						"12",
						"13",
						"15",
						"16",
						"17",
						"20",
						"21",
						"22",
						"23",
						"24",
						"25",
						"26",
						"27",
						"28",
						"29",
						"30",
						"31"
					]
				},
				{
					"filter_id": "24",
					"weight": "4",
					"name": "TV, Electronics, Appliance",
					"type": "0",
					"rooms": [
						"1",
						"2",
						"7",
						"9",
						"10",
						"11",
						"12",
						"17"
					]
				},
				{
					"filter_id": "26",
					"weight": "9",
					"name": "TV Stand, Cabinet, China",
					"type": "0",
					"rooms": [
						"1",
						"7",
						"8",
						"9",
						"10",
						"11"
					]
				},
				{
					"filter_id": "27",
					"weight": "10",
					"name": "Odds & Ends",
					"type": "0",
					"rooms": [
						"2",
						"7",
						"9",
						"10",
						"11"
					]
				},
				{
					"filter_id": "25",
					"weight": "11",
					"name": "Storage, Desk, Bookcase",
					"type": "0",
					"rooms": [
						"1",
						"7",
						"9",
						"10",
						"11"
					]
				}
			]
		},
		{
			"room_id": "12",
			"name": "Garage",
			"image_link": "/moveBoard/content/img/icons/garage.png",
			"type": "0",
			"created": "1506939247",
			"weight": "11",
			"uri": "/moveBoard/content/img/icons/garage.png",
			"filters": [
				{
					"filter_id": "11",
					"weight": "0",
					"name": "Bed, Mattress",
					"type": "0",
					"rooms": [
						"1",
						"2",
						"5",
						"7",
						"8",
						"9",
						"10",
						"11",
						"12",
						"13",
						"15",
						"16",
						"17",
						"20",
						"21",
						"22",
						"23",
						"24",
						"25",
						"26",
						"27",
						"28",
						"29",
						"30",
						"31"
					]
				},
				{
					"filter_id": "22",
					"weight": "0",
					"name": "Basement, Garage",
					"type": "0",
					"rooms": [
						"12"
					]
				},
				{
					"filter_id": "17",
					"weight": "1",
					"name": "Miscellaneous",
					"type": "0",
					"rooms": [
						"1",
						"2",
						"5",
						"7",
						"8",
						"9",
						"10",
						"11",
						"12",
						"13",
						"15",
						"16",
						"17",
						"20",
						"21",
						"22",
						"23",
						"24",
						"25",
						"26",
						"27",
						"28",
						"29",
						"30",
						"31"
					]
				},
				{
					"filter_id": "3",
					"weight": "1",
					"name": "Boxes, Totes",
					"type": "0",
					"rooms": [
						"1",
						"2",
						"5",
						"7",
						"8",
						"9",
						"10",
						"11",
						"12",
						"13",
						"15",
						"16",
						"17",
						"20",
						"21",
						"22",
						"23",
						"24",
						"25",
						"26",
						"27",
						"28",
						"29",
						"30",
						"31"
					]
				},
				{
					"filter_id": "4",
					"weight": "2",
					"name": "Dresser, Mirror",
					"type": "0",
					"rooms": [
						"1",
						"2",
						"5",
						"7",
						"8",
						"9",
						"10",
						"11",
						"12",
						"13",
						"15",
						"16",
						"17",
						"20",
						"21",
						"22",
						"23",
						"24",
						"25",
						"26",
						"27",
						"28",
						"29",
						"30",
						"31"
					]
				},
				{
					"filter_id": "15",
					"weight": "4",
					"name": "Sofa, Chair",
					"type": "0",
					"rooms": [
						"1",
						"2",
						"5",
						"7",
						"8",
						"9",
						"10",
						"11",
						"12",
						"13",
						"15",
						"16",
						"17",
						"20",
						"21",
						"22",
						"23",
						"24",
						"25",
						"26",
						"27",
						"28",
						"29",
						"30",
						"31"
					]
				},
				{
					"filter_id": "24",
					"weight": "4",
					"name": "TV, Electronics, Appliance",
					"type": "0",
					"rooms": [
						"1",
						"2",
						"7",
						"9",
						"10",
						"11",
						"12",
						"17"
					]
				}
			]
		},
		{
			"room_id": "13",
			"name": "Patio",
			"image_link": "/moveBoard/content/img/icons/grill.png",
			"type": "0",
			"created": "1506939247",
			"weight": "12",
			"uri": "/moveBoard/content/img/icons/grill.png",
			"filters": [
				{
					"filter_id": "11",
					"weight": "0",
					"name": "Bed, Mattress",
					"type": "0",
					"rooms": [
						"1",
						"2",
						"5",
						"7",
						"8",
						"9",
						"10",
						"11",
						"12",
						"13",
						"15",
						"16",
						"17",
						"20",
						"21",
						"22",
						"23",
						"24",
						"25",
						"26",
						"27",
						"28",
						"29",
						"30",
						"31"
					]
				},
				{
					"filter_id": "20",
					"weight": "0",
					"name": "Outdoor, Patio",
					"type": "0",
					"rooms": [
						"13"
					]
				},
				{
					"filter_id": "3",
					"weight": "1",
					"name": "Boxes, Totes",
					"type": "0",
					"rooms": [
						"1",
						"2",
						"5",
						"7",
						"8",
						"9",
						"10",
						"11",
						"12",
						"13",
						"15",
						"16",
						"17",
						"20",
						"21",
						"22",
						"23",
						"24",
						"25",
						"26",
						"27",
						"28",
						"29",
						"30",
						"31"
					]
				},
				{
					"filter_id": "17",
					"weight": "1",
					"name": "Miscellaneous",
					"type": "0",
					"rooms": [
						"1",
						"2",
						"5",
						"7",
						"8",
						"9",
						"10",
						"11",
						"12",
						"13",
						"15",
						"16",
						"17",
						"20",
						"21",
						"22",
						"23",
						"24",
						"25",
						"26",
						"27",
						"28",
						"29",
						"30",
						"31"
					]
				},
				{
					"filter_id": "4",
					"weight": "2",
					"name": "Dresser, Mirror",
					"type": "0",
					"rooms": [
						"1",
						"2",
						"5",
						"7",
						"8",
						"9",
						"10",
						"11",
						"12",
						"13",
						"15",
						"16",
						"17",
						"20",
						"21",
						"22",
						"23",
						"24",
						"25",
						"26",
						"27",
						"28",
						"29",
						"30",
						"31"
					]
				},
				{
					"filter_id": "15",
					"weight": "4",
					"name": "Sofa, Chair",
					"type": "0",
					"rooms": [
						"1",
						"2",
						"5",
						"7",
						"8",
						"9",
						"10",
						"11",
						"12",
						"13",
						"15",
						"16",
						"17",
						"20",
						"21",
						"22",
						"23",
						"24",
						"25",
						"26",
						"27",
						"28",
						"29",
						"30",
						"31"
					]
				}
			]
		},
		{
			"room_id": "16",
			"name": "Other",
			"image_link": "/moveBoard/content/img/icons/vacuum-cleaner.png",
			"type": "0",
			"created": "1506939247",
			"weight": "13",
			"uri": "/moveBoard/content/img/icons/vacuum-cleaner.png",
			"filters": [
				{
					"filter_id": "11",
					"weight": "0",
					"name": "Bed, Mattress",
					"type": "0",
					"rooms": [
						"1",
						"2",
						"5",
						"7",
						"8",
						"9",
						"10",
						"11",
						"12",
						"13",
						"15",
						"16",
						"17",
						"20",
						"21",
						"22",
						"23",
						"24",
						"25",
						"26",
						"27",
						"28",
						"29",
						"30",
						"31"
					]
				},
				{
					"filter_id": "17",
					"weight": "1",
					"name": "Miscellaneous",
					"type": "0",
					"rooms": [
						"1",
						"2",
						"5",
						"7",
						"8",
						"9",
						"10",
						"11",
						"12",
						"13",
						"15",
						"16",
						"17",
						"20",
						"21",
						"22",
						"23",
						"24",
						"25",
						"26",
						"27",
						"28",
						"29",
						"30",
						"31"
					]
				},
				{
					"filter_id": "3",
					"weight": "1",
					"name": "Boxes, Totes",
					"type": "0",
					"rooms": [
						"1",
						"2",
						"5",
						"7",
						"8",
						"9",
						"10",
						"11",
						"12",
						"13",
						"15",
						"16",
						"17",
						"20",
						"21",
						"22",
						"23",
						"24",
						"25",
						"26",
						"27",
						"28",
						"29",
						"30",
						"31"
					]
				},
				{
					"filter_id": "4",
					"weight": "2",
					"name": "Dresser, Mirror",
					"type": "0",
					"rooms": [
						"1",
						"2",
						"5",
						"7",
						"8",
						"9",
						"10",
						"11",
						"12",
						"13",
						"15",
						"16",
						"17",
						"20",
						"21",
						"22",
						"23",
						"24",
						"25",
						"26",
						"27",
						"28",
						"29",
						"30",
						"31"
					]
				},
				{
					"filter_id": "15",
					"weight": "4",
					"name": "Sofa, Chair",
					"type": "0",
					"rooms": [
						"1",
						"2",
						"5",
						"7",
						"8",
						"9",
						"10",
						"11",
						"12",
						"13",
						"15",
						"16",
						"17",
						"20",
						"21",
						"22",
						"23",
						"24",
						"25",
						"26",
						"27",
						"28",
						"29",
						"30",
						"31"
					]
				}
			]
		},
		{
			"room_id": "17",
			"name": "Play Room",
			"image_link": "/moveBoard/content/img/icons/boxes.png",
			"type": "0",
			"created": "1506939247",
			"weight": "14",
			"uri": "/moveBoard/content/img/icons/boxes.png",
			"filters": [
				{
					"filter_id": "11",
					"weight": "0",
					"name": "Bed, Mattress",
					"type": "0",
					"rooms": [
						"1",
						"2",
						"5",
						"7",
						"8",
						"9",
						"10",
						"11",
						"12",
						"13",
						"15",
						"16",
						"17",
						"20",
						"21",
						"22",
						"23",
						"24",
						"25",
						"26",
						"27",
						"28",
						"29",
						"30",
						"31"
					]
				},
				{
					"filter_id": "17",
					"weight": "1",
					"name": "Miscellaneous",
					"type": "0",
					"rooms": [
						"1",
						"2",
						"5",
						"7",
						"8",
						"9",
						"10",
						"11",
						"12",
						"13",
						"15",
						"16",
						"17",
						"20",
						"21",
						"22",
						"23",
						"24",
						"25",
						"26",
						"27",
						"28",
						"29",
						"30",
						"31"
					]
				},
				{
					"filter_id": "3",
					"weight": "1",
					"name": "Boxes, Totes",
					"type": "0",
					"rooms": [
						"1",
						"2",
						"5",
						"7",
						"8",
						"9",
						"10",
						"11",
						"12",
						"13",
						"15",
						"16",
						"17",
						"20",
						"21",
						"22",
						"23",
						"24",
						"25",
						"26",
						"27",
						"28",
						"29",
						"30",
						"31"
					]
				},
				{
					"filter_id": "4",
					"weight": "2",
					"name": "Dresser, Mirror",
					"type": "0",
					"rooms": [
						"1",
						"2",
						"5",
						"7",
						"8",
						"9",
						"10",
						"11",
						"12",
						"13",
						"15",
						"16",
						"17",
						"20",
						"21",
						"22",
						"23",
						"24",
						"25",
						"26",
						"27",
						"28",
						"29",
						"30",
						"31"
					]
				},
				{
					"filter_id": "24",
					"weight": "4",
					"name": "TV, Electronics, Appliance",
					"type": "0",
					"rooms": [
						"1",
						"2",
						"7",
						"9",
						"10",
						"11",
						"12",
						"17"
					]
				},
				{
					"filter_id": "15",
					"weight": "4",
					"name": "Sofa, Chair",
					"type": "0",
					"rooms": [
						"1",
						"2",
						"5",
						"7",
						"8",
						"9",
						"10",
						"11",
						"12",
						"13",
						"15",
						"16",
						"17",
						"20",
						"21",
						"22",
						"23",
						"24",
						"25",
						"26",
						"27",
						"28",
						"29",
						"30",
						"31"
					]
				},
				{
					"filter_id": "19",
					"weight": "5",
					"name": "Sports & Games",
					"type": "0",
					"rooms": [
						"1",
						"10",
						"17"
					]
				},
				{
					"filter_id": "21",
					"weight": "8",
					"name": "Musical Instrument",
					"type": "0",
					"rooms": [
						"10",
						"17"
					]
				}
			]
		},
		{
			"room_id": "20",
			"name": "test room",
			"image_link": "http://api.moversboard.net:8082/sites/default/files/styles/inventory/public/inventory/msr26_11.jpg?itok=3yKZeKkP",
			"type": "0",
			"created": "1507903502",
			"weight": "15",
			"uri": "public://inventory/msr26_11.jpg",
			"filters": [
				{
					"filter_id": "11",
					"weight": "0",
					"name": "Bed, Mattress",
					"type": "0",
					"rooms": [
						"1",
						"2",
						"5",
						"7",
						"8",
						"9",
						"10",
						"11",
						"12",
						"13",
						"15",
						"16",
						"17",
						"20",
						"21",
						"22",
						"23",
						"24",
						"25",
						"26",
						"27",
						"28",
						"29",
						"30",
						"31"
					]
				},
				{
					"filter_id": "28",
					"weight": "0",
					"name": "test filter",
					"type": "0",
					"rooms": [
						"20"
					]
				},
				{
					"filter_id": "3",
					"weight": "1",
					"name": "Boxes, Totes",
					"type": "0",
					"rooms": [
						"1",
						"2",
						"5",
						"7",
						"8",
						"9",
						"10",
						"11",
						"12",
						"13",
						"15",
						"16",
						"17",
						"20",
						"21",
						"22",
						"23",
						"24",
						"25",
						"26",
						"27",
						"28",
						"29",
						"30",
						"31"
					]
				},
				{
					"filter_id": "17",
					"weight": "1",
					"name": "Miscellaneous",
					"type": "0",
					"rooms": [
						"1",
						"2",
						"5",
						"7",
						"8",
						"9",
						"10",
						"11",
						"12",
						"13",
						"15",
						"16",
						"17",
						"20",
						"21",
						"22",
						"23",
						"24",
						"25",
						"26",
						"27",
						"28",
						"29",
						"30",
						"31"
					]
				},
				{
					"filter_id": "4",
					"weight": "2",
					"name": "Dresser, Mirror",
					"type": "0",
					"rooms": [
						"1",
						"2",
						"5",
						"7",
						"8",
						"9",
						"10",
						"11",
						"12",
						"13",
						"15",
						"16",
						"17",
						"20",
						"21",
						"22",
						"23",
						"24",
						"25",
						"26",
						"27",
						"28",
						"29",
						"30",
						"31"
					]
				},
				{
					"filter_id": "15",
					"weight": "4",
					"name": "Sofa, Chair",
					"type": "0",
					"rooms": [
						"1",
						"2",
						"5",
						"7",
						"8",
						"9",
						"10",
						"11",
						"12",
						"13",
						"15",
						"16",
						"17",
						"20",
						"21",
						"22",
						"23",
						"24",
						"25",
						"26",
						"27",
						"28",
						"29",
						"30",
						"31"
					]
				}
			]
		}
	],
	"status_code": 200
}