{
	"date": {
		"value": "08/23/2017",
		"label": "Date",
		"raw": 1503446400,
		"field": "field_date",
		"old": "08/23/2017"
	},
	"status": {
		"value": " Confirmed",
		"label": "Status",
		"field": "field_approve",
		"raw": "3",
		"old": "3"
	},
	"minimum_time": {
		"value": "01:15",
		"label": "Minimum Move Time",
		"field": "field_minimum_move_time",
		"raw": 1.25,
		"old": "1.25"
	},
	"maximum_time": {
		"value": "02:15",
		"label": "Maximum Move time",
		"field": "field_maximum_move_time",
		"raw": 2.25,
		"old": "2.25"
	},
	"travel_time": {
		"value": "44:30",
		"label": "Travel Time",
		"field": "field_travel_time",
		"old": "44:30",
		"raw": 44.5
	},
	"move_size": {
		"value": "Room or less",
		"label": "Size of Move",
		"field": "field_size_of_move",
		"raw": "1",
		"old": "1"
	},
	"service_type": {
		"value": "Moving",
		"label": "Service Type",
		"field": "field_move_service_type",
		"raw": "1",
		"old": "1"
	},
	"crew": {
		"value": "2",
		"label": "Movers Count",
		"field": "field_movers_count",
		"old": "2"
	},
	"rate": {
		"value": "90",
		"label": "Price per hour",
		"field": "field_price_per_hour",
		"old": "90"
	},
	"field_moving_from": {
		"locality": "Los Angeles",
		"administrative_area": "MA",
		"thoroughfare": "Boston Tes",
		"postal_code": "90001",
		"premise": null
	},
	"adrfrom": {
		"value": "Boston Tes",
		"label": "Moving From",
		"field": "field_moving_from",
		"subfield": "thoroughfare",
		"old": "Boston Tes"
	},
	"city_from": {
		"value": "Los Angeles",
		"label": "Origin city",
		"field": "field_moving_from",
		"subfield": "locality",
		"old": "Los Angeles"
	},
	"zip_from": {
		"value": "90001",
		"label": "Origin zip zode",
		"field": "field_moving_from",
		"subfield": "postal_code",
		"old": "90001"
	},
	"state_from": {
		"value": "MA",
		"label": "Origin state",
		"field": "field_moving_from",
		"subfield": "administrative_area",
		"old": "MA"
	},
	"apt_from": {
		"value": null,
		"label": "Apt_from",
		"field": "field_apt_from",
		"old": null
	},
	"type_from": {
		"value": "No Stairs - Ground Floor",
		"label": "Type of Entarence (From)",
		"field": "field_type_of_entrance_from",
		"raw": "1",
		"old": "1"
	},
	"field_moving_to": {
		"locality": "Dennis",
		"administrative_area": "MA",
		"thoroughfare": "1234",
		"postal_code": "02641",
		"premise": null
	},
	"adrto": {
		"value": "1234",
		"label": "Destination address",
		"field": "field_moving_to",
		"subfield": "thoroughfare",
		"old": "1234"
	},
	"city_to": {
		"value": "Dennis",
		"label": "Destination city",
		"field": "field_moving_to",
		"subfield": "locality",
		"old": "Dennis"
	},
	"zip_to": {
		"value": "02641",
		"label": "Destination zip zode",
		"field": "field_moving_to",
		"subfield": "postal_code",
		"old": "02641"
	},
	"state_to": {
		"value": "MA",
		"label": "Destination state",
		"field": "field_moving_to",
		"subfield": "administrative_area",
		"old": "MA"
	},
	"type_to": {
		"value": "No Stairs - Ground Floor",
		"label": "Type of Entarence (To)",
		"field": "field_type_of_entrance_to_",
		"raw": "1",
		"old": "1"
	},
	"field_extra_pickup": {
		"locality": null,
		"premise": null,
		"administrative_area": null,
		"thoroughfare": null,
		"postal_code": null,
		"organisation_name": null
	},
	"field_extra_dropoff": {
		"locality": null,
		"premise": null,
		"administrative_area": null,
		"thoroughfare": null,
		"postal_code": null,
		"organisation_name": null
	},
	"field_move_images": [],
	"field_contract_images": [],
	"apt_to": {
		"value": null,
		"label": "Apt_to",
		"field": "field_apt_to",
		"old": null
	},
	"from": "Los Angeles, MA, 90001",
	"to": "Dennis, MA, 02641",
	"storage_rate": {
		"value": 100,
		"label": "Storage Price",
		"field": "field_storage_price",
		"old": 100
	},
	"reservation_rate": {
		"value": "0.00",
		"label": "Reservation_price",
		"field": "field_reservation_price",
		"old": "0.00"
	},
	"field_reservation_received": {
		"value": false,
		"label": "Reservation received",
		"field": "field_reservation_received",
		"old": false
	},
	"field_cubic_feet": {
		"value": true,
		"label": "cubic_feet",
		"field": "field_cubic_feet",
		"old": true
	},
	"field_long_distance_rate": {
		"value": null,
		"label": "long_distance_rate",
		"field": "field_long_distance_rate",
		"old": null
	},
	"rooms": {
		"value": [],
		"label": "Extra Furnished Rooms",
		"field": "field_extra_furnished_rooms",
		"raw": [],
		"old": []
	},
	"name": "Yar Ol",
	"first_name": "Yar",
	"last_name": "Ol",
	"uid": {
		"field_user_first_name": "Yar",
		"field_user_last_name": "Ol",
		"field_primary_phone": "(123) 432-1431",
		"field_user_additional_phone": "",
		"field_isnew": false,
		"field_source": null,
		"uid": "5903",
		"name": "yar.ol@gmail.com",
		"mail": "yar.ol@gmail.com",
		"url": "http://api.moversboard.net:8052/user/5903",
		"edit_url": "http://api.moversboard.net:8052/user/5903/edit",
		"last_access": "1491587305",
		"last_login": null,
		"created": "1491587305",
		"roles": [
			"authenticated user"
		],
		"status": "1",
		"theme": "adminimal",
		"feed_nid": null,
		"feed_node": null,
		"uuid": "5a8f1473-db2a-4e95-a73d-5a10243e9317",
		"settings": []
	},
	"email": "yar.ol@gmail.com",
	"phone": "(123) 413-2414",
	"field_additional_phone": null,
	"field_parser_provider_name": "Moveboard",
	"field_parser_provider_id": null,
	"trucks": {
		"value": {
			"tid": "21",
			"vid": "8",
			"name": "Truck 2",
			"description": "",
			"format": "filtered_html",
			"weight": "0",
			"uuid": "bf5fdd64-fa0d-4b98-a313-529cbf949a7b",
			"vocabulary_machine_name": "trucks",
			"field_ld_only": {
				"und": [
					{
						"value": "0"
					}
				]
			}
		},
		"label": "Truck",
		"raw": [
			"21"
		],
		"old": [
			"21"
		],
		"field": "field_list_truck"
	},
	"suggested_trucks": null,
	"delivery_trucks": {
		"value": [],
		"label": "Flat Rate Delivery trucks",
		"raw": [],
		"old": [],
		"field": "field_flat_rate_delivery_trucks"
	},
	"request_data": {
		"value": {
			"crews": {
				"workersCollection": [
					"5927"
				],
				"type": "local",
				"active": 0,
				"baseCrew": {
					"name": "Crew",
					"rate": 0,
					"helpers": [
						"5927"
					]
				},
				"additionalCrews": [],
				"foreman": "5923"
			}
		}
	},
	"request_all_data": {
		"localdiscount": "25",
		"admin": "5922",
		"isDisplayQuoteEye": false,
		"showQuote": true,
		"travelTime": true,
		"request_distance": {
			"duration": 44.5,
			"distance": 3057,
			"max_distance": 3058,
			"zipFrom": "90001",
			"zipTo": "02641",
			"zipParking": "90001",
			"distances": {
				"AB": {
					"distance": 3057,
					"duration": 44.5
				},
				"BC": {
					"distance": 3058,
					"duration": 44.5
				},
				"CA": {
					"distance": 1,
					"duration": 0
				}
			},
			"duration_origin_destination": 44.5,
			"distance_origin_destination": 3057
		},
		"localFlatMilesFlag": false,
		"surcharge_fuel": 0,
		"surcharge_fuel_perc": 0,
		"surcharge_fuel_avg": 0,
		"toStorage": true,
		"additionalBlock": [
			{
				"title": "",
				"text": "",
				"isVisible": false
			}
		],
		"add_money_discount": 0,
		"add_percent_discount": 0,
		"add_rate_discount": 0,
		"statistic": {
			"booked_by": "manager",
			"booked_date": 1499435711
		},
		"valuation": {
			"deductible_level": 0,
			"valuation_charge": 0
		},
		"invoice": {
			"work_time": "0-86:00",
			"work_time_old": "0-86:00",
			"work_time_int": -86,
			"nid": "4366",
			"apt_from": {
				"value": null,
				"label": "Apt_from",
				"field": "field_apt_from",
				"old": null
			},
			"apt_to": {
				"value": null,
				"label": "Apt_to",
				"field": "field_apt_to",
				"old": null
			},
			"city_from": {
				"value": "Los Angeles",
				"label": "Origin city",
				"field": "field_moving_from",
				"subfield": "locality",
				"old": "Los Angeles"
			},
			"city_to": {
				"value": "Dennis",
				"label": "Destination city",
				"field": "field_moving_to",
				"subfield": "locality",
				"old": "Dennis"
			},
			"date": {
				"value": "08/23/2017",
				"label": "Date",
				"raw": 1503446400,
				"field": "field_date",
				"old": "08/23/2017"
			},
			"ddate": {
				"value": "",
				"label": "Delivery Date",
				"raw": false,
				"field": "field_delivery_date",
				"old": ""
			},
			"delivery_date_from": {
				"value": "",
				"label": "Delivery Date From",
				"raw": false,
				"field": "field_delivery_date_from"
			},
			"delivery_date_to": {
				"value": "",
				"label": "Delivery Date To",
				"raw": false,
				"field": "field_delivery_date_to"
			},
			"delivery_start_time": {
				"value": null,
				"label": "Delivery start",
				"raw": false,
				"field": "field_delivery_start"
			},
			"distance": {
				"value": "3057.00",
				"label": "Distance",
				"field": "field_distance",
				"old": "3057.00"
			},
			"dstart_time1": {
				"value": null,
				"label": "Delivery start time1",
				"raw": "Delivery start time1",
				"field": "field_delivery_start_time1"
			},
			"dstart_time2": {
				"value": null,
				"label": "Delvery start time2",
				"raw": "Delvery start time2",
				"field": "field_delvery_start_time2"
			},
			"extraServices": [
				{
					"name": "Custom Extra",
					"edit": true,
					"extra_services": [
						{
							"services_default_value": 1,
							"services_name": "Cost",
							"services_read_only": false,
							"services_type": "Amount"
						},
						{
							"services_default_value": 2,
							"services_name": "Value",
							"services_read_only": false,
							"services_type": "Number"
						},
						{
							"services_default_value": 1,
							"services_name": "Weight",
							"services_read_only": false,
							"services_type": "Weight"
						}
					]
				},
				{
					"name": "Hoisting Fee",
					"extra_services": [
						{
							"services_name": "Cost Per Item",
							"services_type": "Amount",
							"services_read_only": true,
							"services_default_value": 50
						},
						{
							"services_name": "# of Items",
							"services_type": "Amount",
							"services_read_only": false,
							"services_default_value": "1"
						}
					]
				}
			],
			"field_extra_dropoff": {
				"locality": null,
				"premise": null,
				"administrative_area": null,
				"thoroughfare": null,
				"postal_code": null,
				"organisation_name": null
			},
			"field_extra_pickup": {
				"locality": null,
				"premise": null,
				"administrative_area": null,
				"thoroughfare": null,
				"postal_code": null,
				"organisation_name": null
			},
			"field_moving_from": {
				"locality": "Los Angeles",
				"administrative_area": "MA",
				"thoroughfare": "Boston Tes",
				"postal_code": "90001",
				"premise": null
			},
			"field_moving_to": {
				"locality": "Dennis",
				"administrative_area": "MA",
				"thoroughfare": "1234",
				"postal_code": "02641",
				"premise": null
			},
			"field_reservation_received": {
				"value": false,
				"label": "Reservation received",
				"field": "field_reservation_received",
				"old": false
			},
			"flat_rate_quote": {
				"value": null,
				"label": "Estimated Price",
				"field": "field_estimated_prise",
				"old": null
			},
			"from_storage": 2,
			"field_usecalculator": {
				"value": true,
				"label": "useCalculator",
				"field": "field_usecalculator",
				"old": true
			},
			"inventory": {
				"inventory_list": [],
				"statistics": null,
				"move_details": {
					"current_door": "1",
					"new_door": "1",
					"current_permit": "None",
					"new_permit": "None",
					"addcomment": "",
					"admincomments": "",
					"pickup": "",
					"delivery": "",
					"delivery_days": 0,
					"steps_origin": "1",
					"steps_destination": "1",
					"quoteExplanation": ""
				}
			},
			"inventory_weight": {
				"counts": 0,
				"cfs": 0,
				"boxes": 0,
				"custom": 0
			},
			"move_size": {
				"value": "Room or less",
				"label": "Size of Move",
				"field": "field_size_of_move",
				"raw": "1",
				"old": "Room or less"
			},
			"receipts": [],
			"rate": {
				"value": "90",
				"label": "Price per hour",
				"field": "field_price_per_hour",
				"old": "90"
			},
			"rooms": {
				"value": [],
				"label": "Extra Furnished Rooms",
				"field": "field_extra_furnished_rooms",
				"raw": [],
				"old": []
			},
			"reservation_rate": {
				"value": 0,
				"label": "Reservation_price",
				"field": "field_reservation_price",
				"old": 0
			},
			"service_type": {
				"value": "Moving",
				"label": "Service Type",
				"field": "field_move_service_type",
				"raw": "1",
				"old": "Moving"
			},
			"start_time": {
				"value": " Any Time",
				"field": "field_start_time",
				"raw": "1"
			},
			"start_time1": {
				"value": "8:00 AM",
				"label": "Actual Start Time",
				"field": "field_actual_start_time",
				"raw": 0,
				"old": "8:00 AM"
			},
			"start_time2": {
				"value": "8:00 PM",
				"label": "Start Time Max",
				"field": "field_start_time_max",
				"raw": 0,
				"old": "8:00 PM"
			},
			"status": {
				"value": " Confirmed",
				"label": "Status",
				"field": "field_approve",
				"raw": "3",
				"old": " Confirmed"
			},
			"storage_rate": {
				"value": 100,
				"label": "Storage Price",
				"field": "field_storage_price",
				"old": 100
			},
			"travel_time": {
				"value": "44:30",
				"label": "Travel Time",
				"field": "field_travel_time",
				"old": "44:30",
				"raw": 44.5
			},
			"request_all_data": {
				"localdiscount": "25",
				"admin": "5922",
				"isDisplayQuoteEye": false,
				"showQuote": true,
				"travelTime": true,
				"request_distance": {
					"duration": 44.5,
					"distance": 3057,
					"max_distance": 3058,
					"zipFrom": "90001",
					"zipTo": "02641",
					"zipParking": "90001",
					"distances": {
						"AB": {
							"distance": 3057,
							"duration": 44.5
						},
						"BC": {
							"distance": 3058,
							"duration": 44.5
						},
						"CA": {
							"distance": 1,
							"duration": 0
						}
					},
					"duration_origin_destination": 44.5,
					"distance_origin_destination": 3057
				},
				"localFlatMilesFlag": false,
				"surcharge_fuel": 0,
				"surcharge_fuel_perc": 0,
				"surcharge_fuel_avg": 0,
				"toStorage": true,
				"additionalBlock": [
					{
						"title": "",
						"text": "",
						"isVisible": false
					}
				],
				"add_money_discount": 0,
				"add_percent_discount": 0,
				"add_rate_discount": 0,
				"statistic": [],
				"valuation": {
					"deductible_level": 0,
					"valuation_charge": 0
				},
				"invoice": []
			},
			"field_long_distance_rate": {
				"value": null,
				"label": "long_distance_rate",
				"field": "field_long_distance_rate",
				"old": null
			},
			"type_to": {
				"value": "No Stairs - Ground Floor",
				"label": "Type of Entarence (To)",
				"field": "field_type_of_entrance_to_",
				"raw": "1",
				"old": "No Stairs - Ground Floor"
			},
			"type_from": {
				"value": "No Stairs - Ground Floor",
				"label": "Type of Entarence (From)",
				"field": "field_type_of_entrance_from",
				"raw": "1",
				"old": "No Stairs - Ground Floor"
			},
			"field_cubic_feet": {
				"value": true,
				"label": "cubic_feet",
				"field": "field_cubic_feet",
				"old": true
			},
			"request_data": {
				"value": ""
			},
			"crew": {
				"value": "2",
				"label": "Movers Count",
				"field": "field_movers_count",
				"old": "2"
			},
			"maximum_time": {
				"value": "02:15",
				"label": "Maximum Move time",
				"field": "field_maximum_move_time",
				"raw": 2.25,
				"old": "02:15"
			},
			"minimum_time": {
				"value": "01:15",
				"label": "Minimum Move Time",
				"field": "field_minimum_move_time",
				"raw": 1.25,
				"old": "01:15"
			},
			"duration": {
				"value": "44.50",
				"label": "Travel Duration",
				"field": "field_duration",
				"old": "44.50"
			},
			"field_double_travel_time": {
				"value": "89:00",
				"label": "Double Travel Time",
				"field": "field_double_travel_time",
				"old": "89:00",
				"raw": 89
			},
			"field_useweighttype": {
				"value": 1,
				"label": "Weight Type",
				"field": "field_useweighttype",
				"old": 1
			},
			"custom_weight": {
				"value": null,
				"label": "Custom Weight",
				"field": "field_customweight",
				"old": null
			},
			"closing_weight": {
				"value": 175,
				"old": 175
			},
			"storage_id": "4365",
			"total_weight": [],
			"discountType": "yelp",
			"rateDiscount": 0
		},
		"grand_total": 322,
		"inventory": [
			{
				"title": "Sofa, 4 Seat",
				"photo": {
					"fid": "924",
					"name": "Sofa 4 seat.jpg",
					"path": "http://api.moversboard.net:8052/sites/default/files/Sofa%204%20seat_0.jpg"
				},
				"id": 4030,
				"fid": "8",
				"cubicFeet": "70.00",
				"title_invertory_list": null,
				"rid": 15,
				"count": 1,
				"cf": "70.00"
			},
			{
				"title": "Sofa, 3 Seat",
				"photo": {
					"fid": "925",
					"name": "Sofa 3 seat.jpg",
					"path": "http://api.moversboard.net:8052/sites/default/files/Sofa%203%20seat.jpg"
				},
				"id": 4031,
				"fid": "8",
				"cubicFeet": "60.00",
				"title_invertory_list": null,
				"rid": 15,
				"count": 1,
				"cf": "60.00"
			},
			{
				"title": "Futon",
				"photo": {
					"fid": "927",
					"name": "Futon.jpg",
					"path": "http://api.moversboard.net:8052/sites/default/files/Futon.jpg"
				},
				"id": 4033,
				"fid": "8",
				"cubicFeet": "40.00",
				"title_invertory_list": null,
				"rid": 15,
				"count": 1,
				"cf": "40.00"
			},
			{
				"title": "Sofa, 2pcs Sectional",
				"photo": {
					"fid": "929",
					"name": "Sofa sectional.jpg",
					"path": "http://api.moversboard.net:8052/sites/default/files/Sofa%20sectional.jpg"
				},
				"id": 4035,
				"fid": "8",
				"cubicFeet": "80.00",
				"title_invertory_list": null,
				"rid": 15,
				"count": 1,
				"cf": "80.00"
			},
			{
				"title": "Armchair",
				"photo": {
					"fid": "932",
					"name": "Armchair.jpg",
					"path": "http://api.moversboard.net:8052/sites/default/files/Armchair_0.jpg"
				},
				"id": 4038,
				"fid": "8",
				"cubicFeet": "20.00",
				"title_invertory_list": null,
				"rid": 15,
				"count": 1,
				"cf": "20.00"
			},
			{
				"title": "Loveseat",
				"photo": {
					"fid": "931",
					"name": "Loveseat.jpg",
					"path": "http://api.moversboard.net:8052/sites/default/files/Loveseat_0.jpg"
				},
				"id": 4037,
				"fid": "8",
				"cubicFeet": "35.00",
				"title_invertory_list": null,
				"rid": 15,
				"count": 1,
				"cf": "35.00"
			},
			{
				"title": "Sofa, Chaise",
				"photo": {
					"fid": "930",
					"name": "Sofa chaise.jpg",
					"path": "http://api.moversboard.net:8052/sites/default/files/Sofa%20chaise.jpg"
				},
				"id": 4036,
				"fid": "8",
				"cubicFeet": "60.00",
				"title_invertory_list": null,
				"rid": 15,
				"count": 1,
				"cf": "60.00"
			}
		],
		"flatMiles": true,
		"needsAddInventory": true,
		"req_tips": 0,
		"storage_request_id": "4",
		"creditTax": 0,
		"cashDiscount": 0,
		"additional_inventory": []
	},
	"delivery_time": "Actual Start Time - Start Time Max",
	"pref_time": "Any Time",
	"start_time1": {
		"value": "8:00 AM",
		"label": "Actual Start Time",
		"field": "field_actual_start_time",
		"raw": 0,
		"old": "8:00 AM"
	},
	"start_time2": {
		"value": "8:00 PM",
		"label": "Start Time Max",
		"field": "field_start_time_max",
		"raw": 0,
		"old": "8:00 PM"
	},
	"start_time": {
		"value": " Any Time",
		"field": "field_start_time",
		"raw": "1"
	},
	"distance": {
		"value": "3057.00",
		"label": "Distance",
		"field": "field_distance",
		"old": "3057.00"
	},
	"duration": {
		"value": "44.50",
		"label": "Travel Duration",
		"field": "field_duration",
		"old": "44.50"
	},
	"flat_rate_quote": {
		"value": null,
		"label": "Estimated Price",
		"field": "field_estimated_prise",
		"old": null
	},
	"field_usecalculator": {
		"value": true,
		"label": "useCalculator",
		"field": "field_usecalculator",
		"old": true
	},
	"field_useweighttype": {
		"value": "1",
		"label": "Weight Type",
		"field": "field_useweighttype",
		"old": "1"
	},
	"custom_weight": {
		"value": null,
		"label": "Custom Weight",
		"field": "field_customweight",
		"old": null
	},
	"field_double_travel_time": {
		"value": "89:00",
		"label": "Double Travel Time",
		"field": "field_double_travel_time",
		"old": "89:00",
		"raw": 89
	},
	"field_foreman": {
		"value": "5923",
		"label": "Foreman",
		"field": "field_foreman",
		"old": {
			"uid": "5923",
			"name": "foreman1",
			"pass": "$S$D13FFWJVg7D1A.Ol5ZWhEQluz4bVxspa1OfZgRaDOr2I9Z55QWgT",
			"mail": "foreman1@test.test",
			"theme": "",
			"signature": "",
			"signature_format": null,
			"created": "1494936295",
			"access": "0",
			"login": "0",
			"status": "1",
			"timezone": null,
			"language": "",
			"picture": null,
			"init": "",
			"data": {
				"mimemail_textonly": 0,
				"htmlmail_plaintext": 0
			},
			"uuid": "4703d119-2c92-40b5-98b6-4f061416dfbb",
			"roles": {
				"2": "authenticated user",
				"4301886": "foreman"
			},
			"field_user_first_name": {
				"und": [
					{
						"value": "foreman1",
						"format": null,
						"safe_value": "foreman1"
					}
				]
			},
			"field_user_last_name": {
				"und": [
					{
						"value": "test1",
						"format": null,
						"safe_value": "test1"
					}
				]
			},
			"field_primary_phone": {
				"und": [
					{
						"value": "(444) 444-4444",
						"format": null,
						"safe_value": "(444) 444-4444"
					}
				]
			},
			"field_user_additional_phone": [],
			"field_isnew": {
				"und": [
					{
						"value": "0"
					}
				]
			},
			"field_source": []
		}
	},
	"field_helper": {
		"value": [
			"5927"
		],
		"label": "Helper",
		"field": "field_helper",
		"old": {
			"uid": "5927",
			"name": "helper1test9429@themoveboard.com",
			"pass": "$S$Df7FaicXTH8UShhYpuV8lSrJKQIcv/N5Zc/Da3.gLLfdr2qiHLm5",
			"mail": "helper1test9429@themoveboard.com",
			"theme": "",
			"signature": "",
			"signature_format": null,
			"created": "1494936907",
			"access": "0",
			"login": "0",
			"status": "1",
			"timezone": null,
			"language": "",
			"picture": null,
			"init": "",
			"data": {
				"mimemail_textonly": 0,
				"htmlmail_plaintext": 0
			},
			"uuid": "c88e8239-cda8-44f8-bb78-13b8cc2587e4",
			"roles": {
				"2": "authenticated user",
				"238415434": "helper"
			},
			"field_user_first_name": {
				"und": [
					{
						"value": "helper1",
						"format": null,
						"safe_value": "helper1"
					}
				]
			},
			"field_user_last_name": {
				"und": [
					{
						"value": "test",
						"format": null,
						"safe_value": "test"
					}
				]
			},
			"field_primary_phone": {
				"und": [
					{
						"value": "(555) 555-5555",
						"format": null,
						"safe_value": "(555) 555-5555"
					}
				]
			},
			"field_user_additional_phone": [],
			"field_isnew": {
				"und": [
					{
						"value": "0"
					}
				]
			},
			"field_source": []
		}
	},
	"field_date_confirmed": {
		"value": "1499435724",
		"label": "Date Confirmed",
		"field": "field_date_confirmed",
		"old": "1499435724"
	},
	"field_flags": {
		"value": [],
		"label": "Flags",
		"field": "field_flags",
		"old": []
	},
	"field_company_flags": {
		"value": {
			"1": "teamAssigned"
		},
		"label": "Company Flags",
		"field": "field_company_flags"
	},
	"field_foreman_assign_time": {
		"value": null,
		"label": "Foreman Assign Time",
		"field": "field_foreman_assign_time",
		"old": null
	},
	"additional_comments": {
		"value": null,
		"label": "Additional Comments",
		"field": "field_additional_comments",
		"old": null
	},
	"field_quote_explanationn": null,
	"home_estimate_date": {
		"value": "",
		"label": "Home Estimate Date",
		"raw": false,
		"field": "field_home_estimate_date",
		"old": ""
	},
	"home_estimate_actual_start": {
		"value": null,
		"label": "Home Estimate Actual Start Time",
		"field": "field_home_estimate_actual_start",
		"old": null,
		"raw": 0
	},
	"home_estimate_start_time": {
		"value": null,
		"label": "Home Estimate Start Time",
		"field": "field_home_estimate_start_time",
		"old": null,
		"raw": 0
	},
	"home_estimate_time_duration": {
		"value": "00:00",
		"label": "Home Estimate Time Duration",
		"field": "field_home_estimate_time_duratio",
		"old": "00:00",
		"raw": 0
	},
	"home_estimate_assigned": {
		"value": null,
		"label": "Home Estimate assignedn",
		"field": "field_home_estimate_assignedn",
		"old": null
	},
	"home_estimate_status": {
		"value": "1",
		"label": "Home Estimate Status",
		"field": "field_home_estimate_status",
		"raw": "1",
		"old": "1"
	},
	"home_estimator": {
		"value": null,
		"label": "Home Estimator",
		"field": "field_home_estimator",
		"old": null,
		"first_name": "",
		"last_name": ""
	},
	"home_estimate_date_created": {
		"value": "",
		"label": "Home Estimate Date Created",
		"raw": false,
		"field": "field_home_estimate_date_created",
		"old": ""
	},
	"storage_id": 0,
	"from_storage": 2,
	"request_link": "<i class=\"fa fa-external-link\"></i>http://api.moversboard.net:8052/request/4366",
	"day": "",
	"month": "",
	"year": "",
	"created": "1499434039",
	"changed": "1499435767",
	"manager": {
		"last_name": "Halavach",
		"first_name": "Roman"
	},
	"extraServices": [
		{
			"name": "Custom Extra",
			"edit": true,
			"extra_services": [
				{
					"services_default_value": 1,
					"services_name": "Cost",
					"services_read_only": false,
					"services_type": "Amount"
				},
				{
					"services_default_value": 2,
					"services_name": "Value",
					"services_read_only": false,
					"services_type": "Number"
				},
				{
					"services_default_value": 1,
					"services_name": "Weight",
					"services_read_only": false,
					"services_type": "Weight"
				}
			]
		},
		{
			"name": "Hoisting Fee",
			"extra_services": [
				{
					"services_name": "Cost Per Item",
					"services_type": "Amount",
					"services_read_only": true,
					"services_default_value": 50
				},
				{
					"services_name": "# of Items",
					"services_type": "Amount",
					"services_read_only": false,
					"services_default_value": "1"
				}
			]
		}
	],
	"receipts": [
		{
			"account_number": "",
			"amount": 5110,
			"auth_code": "",
			"card_type": "",
			"date": "07/07/2017",
			"description": "Storage first month payment",
			"email": "yar.ol@gmail.com",
			"name": "Yar Ol",
			"invoice_id": "custom",
			"payment_method": "cash",
			"phone": "(123) 412-3423",
			"transaction_id": "Custom Payment",
			"pending": false,
			"payment_flag": "contract",
			"checkN": "",
			"id": "44"
		}
	],
	"contract_info": [],
	"user_created": "5903",
	"labor_time": {
		"value": "00:00",
		"label": "Labor time",
		"field": "field_labor_time",
		"old": "00:00",
		"raw": 0
	},
	"schedule_delivery_date": {
		"value": "",
		"label": "Schedule delivery date",
		"raw": false,
		"field": "field_schedule_delivery_date"
	},
	"ld_sit_delivery_dates": null,
	"ld_status": null,
	"ld_job": false,
	"inventory": {
		"inventory_list": [],
		"statistics": null,
		"move_details": null
	},
	"ddate": {
		"value": "",
		"label": "Delivery Date",
		"raw": false,
		"field": "field_delivery_date"
	},
	"dstart_time1": {
		"value": null,
		"label": "Delivery start time1",
		"raw": "Delivery start time1",
		"field": "field_delivery_start_time1"
	},
	"dstart_time2": {
		"value": null,
		"label": "Delvery start time2",
		"raw": "Delvery start time2",
		"field": "field_delvery_start_time2"
	},
	"delivery_date_to": {
		"value": "",
		"label": "Delivery Date To",
		"raw": false,
		"field": "field_delivery_date_to"
	},
	"delivery_start_time": {
		"value": null,
		"label": "Delivery start",
		"raw": false,
		"field": "field_delivery_start"
	},
	"delivery_date_from": {
		"value": "",
		"label": "Delivery Date From",
		"raw": false,
		"field": "field_delivery_date_from"
	},
	"ddate_second": {
		"value": "",
		"label": "Delivery date second",
		"raw": false,
		"field": "field_delivery_date_second"
	},
	"nid": "4366",
	"payroll": {
		"helper": {
			"5927": []
		},
		"foreman": {
			"5923": []
		}
	},
	"current_manager": {
		"field_user_first_name": "Roman",
		"field_user_last_name": "Halavach",
		"field_primary_phone": "(201) 680-8055",
		"field_user_additional_phone": null,
		"field_isnew": true,
		"field_source": null,
		"uid": "1",
		"name": "roma4ke",
		"mail": "roma4ke@gmail.com",
		"url": "http://api.moversboard.net:8052/user/1",
		"edit_url": "http://api.moversboard.net:8052/user/1/edit",
		"last_access": "1500389982",
		"last_login": "1500384684",
		"created": "1379011643",
		"roles": [
			"authenticated user",
			"administrator"
		],
		"status": "1",
		"theme": "adminimal",
		"feed_nid": null,
		"feed_node": null,
		"uuid": "a3742514-38ff-4933-8c85-120e35c89041",
		"settings": []
	}
}
