[
	{"name": "Crew Size", "value": "[custom:crew-size]"},
	{"name": "Start Time", "value": "[custom:start-window]"},
	{"name": "Move Date", "value": "[custom:move-date]"},
	{"name": "Rate", "value": "[custom:rate]"},
	{"name": "Address From", "value": "[custom:address-from]"},
	{"name": "Address To", "value": "[custom:address-to]"},
	{"name": "Apartment From", "value": "[custom:apartment-from]"},
	{"name": "Apartment To", "value": "[custom:apartment-to]"},
	{"name": "Entrance To", "value": "[custom:entrance-to]"},
	{"name": "Entrance From", "value": "[custom:entrance-from]"},
	{"name": "Move Size", "value": "[custom:move-size]"},
	{"name": "Rooms", "value": "[custom:rooms]"},
	{"name": "Estimated Time", "value": "[custom:estimated-time]"},
	{"name": "Estimated Quote", "value": "[custom:estimated-quote]"},
	{"name": "Extra Services Total", "value": "[custom:request-extra-services]"},
	{"name": "Labor Time", "value": "[custom:labor-time]"},
	{"name": "Travel Time", "value": "[custom:travel-time]"},
	{"name": "Request URL", "value": "[custom:request-url]"},
	{"name": "Flat Rate Grand Total", "value": "[custom:fr-grand-total]"},
	{"name": "Long Distance Grand Total", "value": "[custom:ld-grand-total]"},
	{"name": "Packing Total", "value": "[custom:packing]"},
	{"name": "Request Discount", "value": "[custom:discount]"},
	{"name": "Request Valuation", "value": "[custom:valuation]"},
	{"name": "Request Fuel", "value": "[custom:fuel]"},
	{"name": "Packing Table", "value": "[custom:packing-table]"},
	{"name": "Additional Services Table", "value": "[custom:additional-services-table]"},
	{"name": "Created User Time", "value": "[custom:created-user-time]"},
	{"name": "Send Message Time", "value": "[custom:send-message-time]"},
	{"name": "Assign Manager", "value": "[custom:manager]"},
	{"name": "Reservation Link", "value": "[custom:reservation-link]"},
	{"name": "Sales First Name", "value": "[custom:sales-first-name]"},
	{"name": "Sales Full Name", "value": "[custom:sales-full-name]"},
	{"name": "Sales Signature", "value": "[custom:sales-signature]"},
	{"name": "Closing Packing", "value": "[custom:closing-packing]"},
	{"name": "Closing Additional Services", "value": "[custom:closing-additional-services]"},
	{"name": "Closing Discount", "value": "[custom:closing-discount]"},
	{"name": "Closing Grand Total", "value": "[custom:closing-grand-total]"},
	{"name": "Closing Fuel", "value": "[custom:closing-fuel]"},
	{"name": "Closing C.F.", "value": "[custom:closing-cubic-feet]"},
	{"name": "Rate Per C.F.", "value": "[custom:rate-per-cf-for-ld]"},
	{"name": "Rate Per lbs", "value": "[custom:rate-per-lbs-for-ld]"},
	{"name": "Min C.F.", "value": "[custom:min-cf]"},
	{"name": "Service Type", "value": "[custom:service-type]"},
	{"name": "Distance", "value": "[custom:distance]"},
	{"name": "Date Created", "value": "[custom:created]"},
	{"name": "First Avl. Delv. Date", "value": "[custom:avl-delv-date]"},
	{"name": "Customer Payment", "value": "[custom:closing-payment]"},
	{"name": "Reply on Messages", "value": "[custom:request-url-reply-message]"},
	{"name": "Receipts page", "value": "[custom:request-url-reply-receipt]"},
	{"name": "Bill of landing page", "value": "[custom:bill_of_landing_receipt_url]"},
	{"name": "Inventory with cb.f per item", "value": "[custom:inventory-table]"},
	{"name": "Inventory without cb.f per item", "value": "[custom:inventory-table-without-cf]"},
	{"name": "Review Feedback Link", "value": "[custom:review-url]"},
	{"name": "Review Stars", "value": "[custom:review-url-stars]"},
	{"name": "Requested pickup", "value": "[custom:pickup-date-range]"},
	{"name": "Closing Fuel Percent", "value": "[custom:closing-fuel-percent]"},
	{"name": "Foreman Note", "value": "[custom:foreman-note]"},
	{"name": "Client Note", "value": "[custom:client-note]"},
	{"name": "Current truck number", "value": "[custom:current-truck-number]"},
	{"name": "Request Foreman URL", "value": "[custom:foreman-url]"},
	{"name": "In-home Estimate Date", "value": "[custom:inhome_estimate_date]"},
	{"name": "In-home Estimate Arrival Time Window", "value": "[custom:inhome_estimate_arrival_time_window]"},
	{"name": "In-home Estimator", "value": "[custom:inhome_estimator]"},
	{"name": "Proposal link for main page", "value": "[custom:proposal_link_main_page]"},
	{"name": "Proposal link for additional pages", "value": "[custom:proposal_link_additional_pages]"},
	{"name": "Tax name for invoice", "value": "[custom:tax_name]"},
	{"name": "Valuation deductible levels table", "value": "[custom:valuation-table]"},
	{"name": "Flat Rate Quote", "value": "[custom:flat-rate-quote]"},
	{"name": "Contract Pdf URL", "value": "[custom:contract-pdf-url]"},
	{"name": "Extra Pickup", "value": "[custom:pickup]"},
	{"name": "Extra Dropoff", "value": "[custom:dropoff]"},
	{"name": "Extra Pickup Apt", "value": "[custom:pickup-apt]"},
	{"name": "Extra Dropoff Apt", "value": "[custom:dropoff-apt]"},
	{"name": "Extra Pickup Entrance", "value": "[custom:pickup-entrance]"},
	{"name": "Extra Dropoff Entrance", "value": "[custom:dropoff-entrance]"}
]