{
  "new":{
    "pickedUpCrew":{
      "helpers":[
        "5903"
      ],
      "foreman":"5905"
    }

  },
  "old":{
    "pickedUpCrew":{
      "helpers":[
        "5903",
        "6865",
        "5908"
      ],
      "foreman":"5905"
    }
  }
}
