{
  "old":
  {
    "additionalCrews":[
      {
        "helpers":[
          "5987",
          "5901"
        ]
      }
    ]
  },
  "new":
  {
    "additionalCrews":[
      {
        "helpers":[
          "5987",
          "5901"
        ]
      },
      {
        "helpers":[
          "6001",
          "6002"
        ]
      }
    ]
  }
}
